<?xml version="1.0" encoding="UTF-8"?>
<svg width="76px" height="76px" viewBox="0 0 76 76" version="1.1" xmlns="http://www.w3.org/2000/svg" xmlns:xlink="http://www.w3.org/1999/xlink">
    <!-- Generator: Sketch 48.2 (47327) - http://www.bohemiancoding.com/sketch -->
    <title>2checkout-light</title>
    <desc>Created with Sketch.</desc>
    <defs>
        <linearGradient x1="52.7544869%" y1="50%" x2="106.225742%" y2="50%" id="linearGradient-1">
            <stop stop-color="#F5F6F8" stop-opacity="0.8" offset="0%"></stop>
            <stop stop-color="#E4E8EE" stop-opacity="0.5" offset="100%"></stop>
        </linearGradient>
    </defs>
    <g id="methods-gray-co-big" stroke="none" stroke-width="1" fill="none" fill-rule="evenodd" transform="translate(-881.000000, -91.000000)">
        <g id="Group-2" fill="url(#linearGradient-1)">
            <g id="2checkout-light" transform="translate(881.000000, 91.000000)">
                <path d="M74.4078093,26.8657881 C69.6445529,11.3119108 55.1636068,0 38.0366185,0 C17.0299731,0 -1.13686838e-13,17.0134787 -1.13686838e-13,38.0009503 C-1.13686838e-13,58.9874716 17.0299731,76 38.0366185,76 C55.2473062,76 69.7834178,64.5759584 74.4724861,48.9042487 C72.5065015,50.0920753 70.1572117,50.7914677 67.5358989,50.7914677 C59.8897691,50.7914677 54.5558351,45.0005752 54.5558351,38.0009503 L54.5558351,37.9306309 C54.5558351,30.9300558 59.9620549,25.0688439 67.6081847,25.0688439 C70.1762343,25.0688439 72.4741631,25.7330766 74.4078093,26.8657881 L74.4078093,26.8657881 Z M29.2643514,50.3648003 L11.2680308,50.3648003 L11.2680308,46.920103 L19.8377073,39.6353997 C23.2522621,36.7580085 24.4982417,35.1596689 24.4982417,32.9208532 C24.4982417,30.469179 22.7548214,29.0466378 20.4787685,29.0466378 C18.2027157,29.0466378 16.6371566,30.2905299 14.7187285,32.7792643 L11.6237532,30.3617995 C14.0063325,27.0206807 16.3527689,25.1391633 20.798348,25.1391633 C25.6719354,25.1391633 29.0151555,28.1239341 29.0151555,32.5654555 L29.0151555,32.6357748 C29.0151555,36.5422991 26.9531068,38.6765861 22.5427195,42.2638226 L17.418985,46.5285954 L29.2643514,46.5285954 L29.2643514,50.3648003 L29.2643514,50.3648003 Z M53.9509167,28.4840831 L50.8702084,31.4907099 C49.0963519,30.0263572 47.1569989,29.0827478 44.6812089,29.0827478 C39.9150992,29.0827478 36.4663037,32.9902223 36.4663037,37.8584111 L36.4663037,37.9306309 C36.4663037,42.7978694 39.9150992,46.7775638 44.6812089,46.7775638 C47.2445028,46.7775638 49.0316751,45.8957213 50.7998248,44.4408712 L53.7150366,47.2897547 C51.3514799,49.4592013 48.6521745,50.7914677 44.5375884,50.7914677 C37.2814217,50.7914677 31.8780552,45.1421641 31.8780552,38.0009503 L31.8780552,37.9306309 C31.8780552,30.8587862 37.1786997,25.0688439 44.7164007,25.0688439 C48.9850698,25.0688439 51.6767662,26.4609768 53.9509167,28.4840831 L53.9509167,28.4840831 Z M76,38.0009503 L76,37.9306309 C76,33.0976018 72.480821,29.0827478 67.5358989,29.0827478 C62.5947813,29.0827478 59.1431325,33.0263322 59.1431325,37.8584111 L59.1431325,37.9306309 C59.1431325,42.7627097 62.6632626,46.7775638 67.6081847,46.7775638 C72.5502534,46.7775638 76,42.8330291 76,38.0009503 L76,38.0009503 Z" id="Fill-72"></path>
            </g>
        </g>
    </g>
</svg>