<?xml version="1.0" encoding="UTF-8"?>
<svg width="156px" height="47px" viewBox="0 0 156 47" version="1.1" xmlns="http://www.w3.org/2000/svg" xmlns:xlink="http://www.w3.org/1999/xlink">
    <!-- Generator: Sketch 48.2 (47327) - http://www.bohemiancoding.com/sketch -->
    <title>Bitcoin-light</title>
    <desc>Created with Sketch.</desc>
    <defs></defs>
    <g id="methods-gray-co-big" stroke="none" stroke-width="1" fill="none" fill-rule="evenodd" transform="translate(-1273.000000, -644.000000)">
        <g id="Group-2">
            <g id="Bitcoin-light" transform="translate(1273.000000, 644.000000)">
                <g id="Bitcoin" transform="translate(33.005104, 0.135165)" fill="#4D4D4D">
                    <path d="M14.4901411,10.1412873 C15.8037466,10.1412873 16.937212,10.3719519 17.8905374,10.8263213 C18.8479109,11.2846677 19.6393126,11.9020931 20.2728389,12.6785976 C20.8982689,13.459079 21.3637993,14.3717949 21.6643701,15.4167452 C21.9629168,16.4656724 22.1126961,17.5921507 22.1126961,18.7991627 C22.1126961,20.651439 21.7675964,22.4032967 21.0693007,24.0537415 C20.3720171,25.7061748 19.4247638,27.1398744 18.2204568,28.3627943 C17.0171618,29.58472 15.5962819,30.5471481 13.9578172,31.2580324 C12.3213764,31.9709053 10.5432526,32.3258503 8.63356571,32.3258503 C8.38663217,32.3258503 7.95247443,32.3198849 7.33918867,32.3059655 C6.72590291,32.2940345 6.02052308,32.2323914 5.23114537,32.1270016 C4.43670754,32.018629 3.5967287,31.8575615 2.70918478,31.6418106 C1.82265289,31.4300366 0.980650002,31.1327577 0.187224201,30.7559393 L7.27745528,1.4873888 L13.6278978,0.519989534 L11.0897448,10.9058608 C11.633201,10.6652538 12.1807053,10.4783359 12.7271976,10.3431188 C13.2767259,10.2118786 13.862687,10.1412873 14.4901411,10.1412873 L14.4901411,10.1412873 Z M9.16386561,27.3774987 C10.1202271,27.3774987 11.0209273,27.1468341 11.8679903,26.6924647 C12.7170773,26.2390895 13.4497818,25.625641 14.0630675,24.8610675 C14.6763533,24.0945055 15.1631362,23.2295133 15.5173442,22.2631083 C15.8715521,21.2976975 16.0506801,20.2905285 16.0506801,19.2416013 C16.0506801,17.9540555 15.8320832,16.9488749 15.3948894,16.2230769 C14.9576956,15.4992674 14.1501015,15.1363684 12.9761551,15.1363684 C12.5915865,15.1363684 12.0956954,15.207954 11.4813976,15.3362114 C10.8650758,15.4744113 10.3135234,15.7577708 9.8186443,16.1843014 L7.11553165,27.2154369 C7.2784673,27.2422815 7.42318655,27.2701204 7.5456413,27.2949765 C7.666072,27.321821 7.79864697,27.3417059 7.93122195,27.3556253 C8.07189311,27.3715332 8.23179269,27.3784929 8.42508903,27.3784929 C8.61838537,27.3784929 8.86329486,27.3774987 9.16386561,27.3774987 L9.16386561,27.3774987 Z" id="path8316"></path>
                    <path d="M28.700964,31.7641026 L22.6348998,31.7641026 L27.7577588,10.5877028 L33.8653158,10.5877028 L28.700964,31.7641026 L28.700964,31.7641026 Z M31.6520222,8.00962847 C30.8049592,8.00962847 30.0378459,7.7610675 29.3567547,7.26593407 C28.6695912,6.77278912 28.3295516,6.01318681 28.3295516,4.99010989 C28.3295516,4.42736787 28.4459342,3.89843014 28.6766754,3.40130822 C28.9104527,2.90418629 29.2170955,2.47467295 29.6006521,2.11177394 C29.9842087,1.75086342 30.4274747,1.46253271 30.931462,1.2447933 C31.4384854,1.03103087 31.9778935,0.924646782 32.5527224,0.924646782 C33.3987734,0.924646782 34.1628505,1.1722135 34.8459658,1.66834118 C35.5270571,2.16645735 35.8701328,2.92605965 35.8701328,3.94317111 C35.8701328,4.50790162 35.7547622,5.03882784 35.520985,5.53594976 C35.2892318,6.03307169 34.9836009,6.46059655 34.6000443,6.82548404 C34.2205358,7.18639456 33.7722097,7.47373103 33.2692344,7.68948195 C32.7622111,7.90622711 32.225839,8.00962847 31.6520222,8.00962847 L31.6520222,8.00962847 Z" id="path8318"></path>
                    <path d="M39.1794471,5.31423339 L45.5329256,4.34683412 L43.9723866,10.5877028 L50.7762152,10.5877028 L49.5476197,15.4982732 L42.7842719,15.4982732 L40.9828715,22.9063841 C40.8168998,23.5238095 40.7227817,24.100471 40.6964691,24.6353741 C40.6671204,25.1742543 40.735938,25.6365777 40.8998857,26.0253271 C41.0628213,26.4150706 41.3563079,26.7153323 41.7813574,26.9290947 C42.2043829,27.1448456 42.8105845,27.2532182 43.6040103,27.2532182 C44.257777,27.2532182 44.8953513,27.1925693 45.5116731,27.0702773 C46.1239469,26.9519623 46.7453288,26.7849294 47.3737949,26.56719 L47.8261691,31.1596023 C47.0064307,31.4548927 46.1188867,31.7094192 45.1625253,31.9231816 C44.2051518,32.1389325 43.0706744,32.2433281 41.760105,32.2433281 C39.8757187,32.2433281 38.4143579,31.969911 37.3739985,31.4220827 C36.3346512,30.8702773 35.5999227,30.1176347 35.1596929,29.1641549 C34.7255351,28.214652 34.5322388,27.1189953 34.586888,25.8851387 C34.6435613,24.6482993 34.8328095,23.3478284 35.1596929,21.9787546 L39.1794471,5.31423339 L39.1794471,5.31423339 Z" id="path8320"></path>
                    <path d="M50.5090412,23.3110413 C50.5090412,21.4866039 50.809612,19.7675563 51.4107535,18.155887 C52.0098709,16.5442177 52.8741383,15.1353741 53.9954595,13.9253794 C55.1127325,12.7213501 56.4728911,11.7678702 58.073911,11.0689168 C59.6678467,10.3719519 61.4520428,10.0209838 63.4194149,10.0209838 C64.6500345,10.0209838 65.7501032,10.1343276 66.7175969,10.3639979 C67.6891387,10.5946625 68.5685864,10.8939299 69.3630243,11.2687598 L67.2711733,15.9427002 C66.7246811,15.7249608 66.1569363,15.5330717 65.5709752,15.3580848 C64.984002,15.1811094 64.2674899,15.0956044 63.4204269,15.0956044 C61.3963815,15.0956044 59.7953616,15.7806384 58.6042109,17.1467295 C57.4181203,18.514809 56.8200148,20.3551544 56.8200148,22.6647828 C56.8200148,24.0338566 57.1205856,25.1394558 57.7237511,25.9865515 C58.3238806,26.8326531 59.4320454,27.2532182 61.0421736,27.2532182 C61.8366114,27.2532182 62.6027126,27.1716902 63.3374411,27.0126112 C64.0772297,26.8515437 64.7299843,26.6497122 65.3058252,26.4091052 L65.7581994,31.1993721 C64.9910862,31.492674 64.1450352,31.7571429 63.2170104,31.9878074 C62.2869615,32.2115123 61.1798087,32.3258503 59.8955518,32.3258503 C58.2014258,32.3258503 56.7663776,32.0832548 55.5934433,31.6030351 C54.419497,31.1158556 53.4489672,30.4686028 52.6848901,29.6493459 C51.9167648,28.8281005 51.3652125,27.8686552 51.0241608,26.7680272 C50.6820971,25.6713762 50.5090412,24.5160649 50.5090412,23.3110413 L50.5090412,23.3110413 Z" id="path8322"></path>
                    <path d="M77.4531338,32.3278388 C76.0049293,32.3278388 74.7479971,32.1120879 73.6813252,31.6835688 C72.6176893,31.2540555 71.7372295,30.6525379 71.0399459,29.8720565 C70.3426622,29.0955521 69.8194465,28.1748823 69.4622025,27.1150183 C69.1039465,26.0561486 68.9329146,24.8819466 68.9329146,23.5963893 C68.9329146,21.9827316 69.1970525,20.370068 69.7293765,18.7613815 C70.2596764,17.1507064 71.046018,15.7030874 72.0884014,14.4155416 C73.1216766,13.1260073 74.3958132,12.0721088 75.8976549,11.2498692 C77.3964605,10.4345892 79.1219592,10.0239665 81.0589707,10.0239665 C82.4798506,10.0239665 83.7317226,10.2407117 84.8125629,10.6692308 C85.888343,11.0987441 86.7748749,11.7042386 87.4762067,12.4807431 C88.1694422,13.2612245 88.696706,14.1779173 89.050914,15.2397698 C89.408158,16.296651 89.5832379,17.4738357 89.5832379,18.7603872 C89.5832379,20.3690738 89.3231481,21.9817373 88.8070165,23.5953951 C88.2898729,25.2001047 87.5237717,26.6517007 86.511749,27.941235 C85.5017504,29.2287807 84.238746,30.281685 82.721724,31.1009419 C81.204702,31.9182104 79.4468185,32.3278388 77.4531338,32.3278388 L77.4531338,32.3278388 Z M80.4841418,15.0975929 C79.5844536,15.0975929 78.7900158,15.3541078 78.1089245,15.8611722 C77.4258092,16.3732077 76.8519923,17.0174778 76.3894979,17.7939822 C75.9219434,18.5734694 75.5748196,19.4265306 75.3410424,20.3501832 C75.1092892,21.2778127 74.9949306,22.1537415 74.9949306,22.9869178 C74.9949306,24.3301413 75.2155516,25.3760858 75.6486973,26.1297227 C76.0889272,26.8783883 76.8783049,27.2552067 78.0269507,27.2552067 C78.9296749,27.2552067 79.7200646,27.0006803 80.405204,26.4886447 C81.0842712,25.9805861 81.6580881,25.3363161 82.1246306,24.5578231 C82.589149,23.7823129 82.9393089,22.9272632 83.1730861,22.0016222 C83.4028153,21.0769754 83.5191979,20.1960754 83.5191979,19.3648875 C83.5191979,18.0246468 83.299589,16.9767138 82.8623951,16.2240712 C82.4252013,15.4734171 81.6317755,15.0975929 80.4841418,15.0975929 L80.4841418,15.0975929 Z" id="path8324"></path>
                    <path d="M96.1917462,31.7641026 L90.121634,31.7641026 L95.244493,10.5877028 L101.355086,10.5877028 L96.1917462,31.7641026 L96.1917462,31.7641026 Z M99.1387563,8.00962847 C98.2927053,8.00962847 97.5255921,7.7610675 96.8455129,7.26593407 C96.1613855,6.77278912 95.8183098,6.01318681 95.8183098,4.99010989 C95.8183098,4.42736787 95.9357045,3.89843014 96.1674577,3.40130822 C96.3992109,2.90418629 96.7068658,2.47467295 97.0904224,2.11177394 C97.4719549,1.75086342 97.919269,1.46253271 98.4222443,1.2447933 C98.9262316,1.03103087 99.4656397,0.924646782 100.039457,0.924646782 C100.887532,0.924646782 101.653633,1.1722135 102.335736,1.66834118 C103.018851,2.16645735 103.362939,2.92605965 103.362939,3.94317111 C103.362939,4.50790162 103.240484,5.03882784 103.010755,5.53594976 C102.781026,6.03307169 102.474383,6.46059655 102.091839,6.82548404 C101.70727,7.18639456 101.266028,7.47373103 100.762041,7.68948195 C100.254005,7.90622711 99.7156093,8.00962847 99.1387563,8.00962847 L99.1387563,8.00962847 Z" id="path8326"></path>
                    <path d="M105.722976,11.5531136 C106.183446,11.4208791 106.697554,11.2618001 107.257202,11.0888017 C107.818875,10.9158032 108.445317,10.7547357 109.145637,10.6095761 C109.838872,10.4604396 110.620154,10.3401361 111.480373,10.2446886 C112.340593,10.1492412 113.319218,10.1025118 114.409167,10.1025118 C117.607159,10.1025118 119.813368,11.0172161 121.030832,12.8426478 C122.246271,14.6680795 122.457784,17.1656201 121.667394,20.3302983 L118.878259,31.7641026 L112.772726,31.7641026 L115.476851,20.5709053 C115.640799,19.8719519 115.77135,19.195866 115.86648,18.5356881 C115.963634,17.8824699 115.957562,17.3058085 115.845227,16.8066981 C115.738965,16.3135531 115.483935,15.9108844 115.090258,15.5976975 C114.689497,15.2884877 114.084308,15.1353741 113.263557,15.1353741 C112.473168,15.1353741 111.668609,15.2188906 110.846847,15.3799581 L106.87061,31.7641026 L100.763053,31.7641026 L105.722976,11.5531136 L105.722976,11.5531136 Z" id="path8328"></path>
                </g>
                <g id="Accepted-Here" transform="translate(62.201959, 37.916431)" fill="#4D4D4D">
                    <path d="M3.23847266,6.60376766 L2.04833396,8.72747253 L0.761041075,8.72747253 C1.66781342,7.12077446 2.55232127,5.64133961 3.41456461,4.28916797 C4.27680796,2.93699634 5.12893108,1.66038723 5.97093397,0.459340659 L7.12463985,0.459340659 C7.24608258,1.05588697 7.35740507,1.65939299 7.45860735,2.26687598 C7.55980962,2.87535322 7.65898784,3.51365777 7.75614202,4.18178964 C7.8532962,4.84992151 7.94640229,5.55881737 8.03546029,6.30648875 C8.12451829,7.05416013 8.21762437,7.86049189 8.31477855,8.72846677 L7.12463985,8.72846677 C7.08415894,8.37053898 7.04772613,8.01062271 7.0153414,7.64871795 C6.98295667,7.28681319 6.94652386,6.93882784 6.90604295,6.6047619 L3.23847266,6.6047619 L3.23847266,6.60376766 Z M6.7967445,5.67216117 C6.73197504,5.0288854 6.65708536,4.38759812 6.57207545,3.75128205 C6.48706555,3.11496599 6.38788732,2.45876504 6.27454078,1.78267923 C5.99117442,2.18833072 5.63899052,2.71229723 5.21798907,3.35159602 C4.79698763,3.99288331 4.31931291,4.76541078 3.78496492,5.67216117 L6.7967445,5.67216117 L6.7967445,5.67216117 Z" id="path8332"></path>
                    <path d="M12.6189111,8.90544218 C12.0926593,8.90544218 11.6291529,8.82987964 11.2283919,8.67875458 C10.8276309,8.52762951 10.4936634,8.31287284 10.2264894,8.03448456 C9.95931545,7.75709053 9.75893496,7.42004186 9.62534796,7.0263213 C9.49176096,6.63260073 9.42496746,6.18916797 9.42496746,5.69602302 C9.42496746,4.98016745 9.54033805,4.29612768 9.77107923,3.64390372 C10.0018204,2.99267399 10.3297158,2.41601256 10.7547653,1.91491366 C11.1798148,1.41381476 11.6918983,1.01412873 12.2910158,0.714861329 C12.8901332,0.416588174 13.5570562,0.267451596 14.2948207,0.267451596 C14.9263229,0.267451596 15.4303102,0.331083203 15.8067826,0.458346415 C16.1832551,0.585609628 16.4524531,0.704918891 16.6143768,0.816274202 L16.1286059,1.7707483 C15.9413817,1.65143904 15.689388,1.53809524 15.3695888,1.4307169 C15.0497897,1.32433281 14.6712932,1.2696494 14.2340994,1.2696494 C13.6754628,1.2696494 13.1734996,1.3989011 12.7282096,1.65839874 C12.2829196,1.91690215 11.9064471,2.25096808 11.5987922,2.66059655 C11.2911373,3.07022501 11.0563481,3.53155416 10.8944244,4.04458399 C10.7325008,4.55761381 10.651539,5.06467818 10.651539,5.56577708 C10.651539,7.11679749 11.3356663,7.89230769 12.703921,7.89230769 C12.9953836,7.89230769 13.2564854,7.87142857 13.4872266,7.83165882 C13.7179678,7.79288331 13.9223964,7.74615385 14.1005124,7.69445317 C14.2786284,7.64275249 14.4365039,7.58608059 14.574139,7.52145474 C14.7117741,7.45782313 14.8332168,7.40214547 14.9384672,7.35442177 L15.0841984,8.35661957 C14.9870443,8.41229723 14.8595294,8.47195186 14.7016539,8.53558346 C14.5437783,8.59921507 14.3595902,8.6588697 14.1490895,8.7155416 C13.9385887,8.77121926 13.7037995,8.81695447 13.4447217,8.85274725 C13.1856438,8.88854003 12.9103737,8.90544218 12.6189111,8.90544218 L12.6189111,8.90544218 Z" id="path8334"></path>
                    <path d="M19.4419682,8.90544218 C18.9157164,8.90544218 18.45221,8.82987964 18.051449,8.67875458 C17.650688,8.52762951 17.3167205,8.31287284 17.0495465,8.03448456 C16.7823725,7.75709053 16.581992,7.42004186 16.448405,7.0263213 C16.314818,6.63260073 16.2480245,6.18916797 16.2480245,5.69602302 C16.2480245,4.98016745 16.3633951,4.29612768 16.5941363,3.64390372 C16.8248775,2.99267399 17.1527728,2.41601256 17.5778224,1.91491366 C18.0028719,1.41381476 18.5149554,1.01412873 19.1140729,0.714861329 C19.7131903,0.416588174 20.3801133,0.267451596 21.1178778,0.267451596 C21.74938,0.267451596 22.2533673,0.331083203 22.6298397,0.458346415 C23.0063122,0.585609628 23.2755102,0.704918891 23.4374339,0.816274202 L22.951663,1.7707483 C22.7644388,1.65143904 22.5124451,1.53809524 22.1926459,1.4307169 C21.8728468,1.32433281 21.4943503,1.2696494 21.0571564,1.2696494 C20.4985199,1.2696494 19.9965567,1.3989011 19.5512667,1.65839874 C19.1059767,1.91690215 18.7295042,2.25096808 18.4218493,2.66059655 C18.1141944,3.07022501 17.8794052,3.53155416 17.7174815,4.04458399 C17.5555579,4.55761381 17.4745961,5.06467818 17.4745961,5.56577708 C17.4745961,7.11679749 18.1587234,7.89230769 19.5269781,7.89230769 C19.8184407,7.89230769 20.0795425,7.87142857 20.3102837,7.83165882 C20.5410249,7.79288331 20.7454535,7.74615385 20.9235695,7.69445317 C21.1016854,7.64275249 21.259561,7.58608059 21.3971961,7.52145474 C21.5348312,7.45782313 21.6562739,7.40214547 21.7615243,7.35442177 L21.9072555,8.35661957 C21.8101013,8.41229723 21.6825865,8.47195186 21.5247109,8.53558346 C21.3668354,8.59921507 21.1826473,8.6588697 20.9721465,8.7155416 C20.7616458,8.77121926 20.5268566,8.81695447 20.2677787,8.85274725 C20.0087009,8.88854003 19.7334307,8.90544218 19.4419682,8.90544218 L19.4419682,8.90544218 Z" id="path8336"></path>
                    <polygon id="path8338" points="22.7027054 8.72647828 24.7186546 0.458346415 29.685662 0.458346415 29.4549209 1.42475144 25.6537636 1.42475144 25.04655 3.91831502 28.4226577 3.91831502 28.1919165 4.86085819 24.8279531 4.86085819 24.111441 7.76007326 28.1919165 7.76007326 27.9611754 8.72647828 22.7027054 8.72647828"></polygon>
                    <path d="M33.2014289,0.374829932 C34.1810669,0.374829932 34.9198435,0.557770801 35.4177587,0.923652538 C35.9156738,1.28953428 36.1646314,1.82244898 36.1646314,2.52239665 C36.1646314,3.06326531 36.0614051,3.53155416 35.8549525,3.92428048 C35.6484998,4.31800105 35.3550132,4.64212454 34.9744927,4.89764521 C34.5939722,5.15217164 34.1365379,5.34008373 33.6021899,5.46336996 C33.0678419,5.5866562 32.4727726,5.64929356 31.8169819,5.64929356 L30.9790271,5.64929356 L30.2260822,8.72747253 L29.0480877,8.72747253 L31.0397484,0.566718995 C31.3797881,0.487179487 31.7400681,0.435478807 32.1205887,0.411616954 C32.5011092,0.386760858 32.8613893,0.374829932 33.2014289,0.374829932 L33.2014289,0.374829932 Z M33.0556977,1.35316588 C32.4808688,1.35316588 32.1327329,1.36907378 32.0112902,1.40088959 L31.2097682,4.6818943 L31.9748574,4.6818943 C32.314897,4.6818943 32.6630328,4.65306122 33.0192648,4.59241235 C33.3754968,4.53275772 33.695296,4.42736787 33.9786624,4.27723705 C34.2620287,4.12611198 34.4947939,3.91732077 34.676958,3.64986918 C34.8591221,3.38341183 34.9502042,3.0403977 34.9502042,2.6188383 C34.9502042,2.16546311 34.7801843,1.84133961 34.4401447,1.64547357 C34.1001051,1.45060178 33.6386227,1.35316588 33.0556977,1.35316588 L33.0556977,1.35316588 Z" id="path8340"></path>
                    <polygon id="path8342" points="43.3489806 0.458346415 43.1182394 1.42475144 40.5800865 1.42475144 38.7948784 8.72647828 37.616884 8.72647828 39.402092 1.42475144 36.8639391 1.42475144 37.0946803 0.458346415 43.3489806 0.458346415"></polygon>
                    <polygon id="path8344" points="42.2559961 8.72647828 44.2719453 0.458346415 49.2389528 0.458346415 49.0082116 1.42475144 45.2070543 1.42475144 44.5998407 3.91831502 47.9759484 3.91831502 47.7452072 4.86085819 44.3812438 4.86085819 43.6647317 7.76007326 47.7452072 7.76007326 47.5144661 8.72647828 42.2559961 8.72647828"></polygon>
                    <path d="M52.7365032,0.374829932 C53.9833152,0.374829932 54.9143761,0.663160649 55.5296859,1.23982208 C56.1449957,1.81648352 56.4526506,2.59398221 56.4526506,3.57231816 C56.4526506,4.25635793 56.3433521,4.91454736 56.1247552,5.5458922 C55.9061583,6.17922554 55.5661187,6.73699634 55.1046364,7.22318158 C54.643154,7.70737834 54.0541568,8.09413919 53.3376447,8.38048142 C52.6211326,8.66682365 51.7649614,8.80999477 50.7691311,8.80999477 C50.4290915,8.80999477 50.0607152,8.79408687 49.6640023,8.76227106 C49.2672894,8.73045526 48.9191536,8.6747776 48.6195949,8.5952381 L50.5748227,0.565724751 C50.9148624,0.486185243 51.2751424,0.434484563 51.655663,0.410622711 C52.0361835,0.386760858 52.3964636,0.374829932 52.7365032,0.374829932 L52.7365032,0.374829932 Z M52.639349,1.35316588 C52.0321354,1.35316588 51.6678072,1.36907378 51.5463645,1.40088959 L49.9918976,7.77200419 C50.0566671,7.78791209 50.1659656,7.8018315 50.319793,7.81376243 C50.4736205,7.82569335 50.7246021,7.83165882 51.0727379,7.83165882 C51.7123362,7.83165882 52.2891892,7.72726321 52.8032967,7.51648352 C53.3174043,7.30570382 53.752574,7.01140764 54.108806,6.63260073 C54.465038,6.25478807 54.7403082,5.80638409 54.9346165,5.28540031 C55.1289249,4.76441654 55.2260791,4.19372057 55.2260791,3.5733124 C55.2260791,2.87336473 55.0196264,2.3285191 54.6067212,1.93778127 C54.1938159,1.54903192 53.5380252,1.35316588 52.639349,1.35316588 L52.639349,1.35316588 Z" id="path8346"></path>
                    <polygon id="path8348" points="65.5244221 8.72647828 64.3464277 8.72647828 65.2815367 4.88472004 61.3832252 4.88472004 60.4481162 8.72647828 59.2701218 8.72647828 61.286071 0.458346415 62.4640655 0.458346415 61.6139664 3.91831502 65.5132899 3.91831502 66.363389 0.458346415 67.5413834 0.458346415 65.5244221 8.72647828"></polygon>
                    <polygon id="path8350" points="67.3824958 8.72647828 69.3984451 0.458346415 74.3654525 0.458346415 74.1336993 1.42475144 70.332542 1.42475144 69.7253284 3.91831502 73.1014361 3.91831502 72.8696829 4.86085819 69.5057195 4.86085819 68.7902194 7.76007326 72.8696829 7.76007326 72.6379297 8.72647828 67.3824958 8.72647828"></polygon>
                    <path d="M77.8812194,0.374829932 C78.7798955,0.374829932 79.4923595,0.553793825 80.0186113,0.911721612 C80.5448631,1.2696494 80.806977,1.79461015 80.806977,2.48560963 C80.806977,3.1855573 80.5995124,3.77315542 80.182559,4.24641549 C79.7656057,4.71967556 79.1806565,5.05970696 78.4277116,5.26551544 C78.5248658,5.43354265 78.6382124,5.64631083 78.7677513,5.90481423 C78.8972902,6.16331763 79.0308772,6.44965986 79.1685123,6.76384092 C79.3051353,7.07702773 79.4397344,7.40413396 79.5692733,7.74118263 C79.6988122,8.08021978 79.8111467,8.40732601 79.9093129,8.72548404 L78.7070299,8.72548404 C78.5946954,8.42323391 78.4762887,8.1170068 78.354846,7.80680272 C78.2344153,7.49659864 78.1099365,7.19832548 77.9854577,6.91198325 C77.8589549,6.62564103 77.7344761,6.35719519 77.6079733,6.10664574 C77.4834945,5.85609628 77.3671118,5.63437991 77.2618615,5.44447933 C77.1566111,5.45243328 77.0513608,5.45839874 76.9461104,5.46237572 C76.84086,5.46635269 76.7366217,5.46834118 76.6303593,5.46834118 L75.6952503,5.46834118 L74.9058726,8.72548404 L73.7278782,8.72548404 L75.7205509,0.564730508 C76.0605905,0.485190999 76.4198586,0.433490319 76.8013912,0.409628467 C77.1808997,0.386760858 77.5411798,0.374829932 77.8812194,0.374829932 L77.8812194,0.374829932 Z M77.7354881,1.35316588 C77.1606592,1.35316588 76.8125234,1.36907378 76.6900687,1.40088959 L75.9249795,4.5277865 L76.6425036,4.5277865 C76.974447,4.5277865 77.3144867,4.50392465 77.6626225,4.45620094 C78.0107583,4.40847724 78.3285334,4.31501832 78.6149358,4.17582418 C78.9023503,4.03663004 79.1371396,3.84175824 79.3193036,3.59120879 C79.5014677,3.34065934 79.5935618,3.00858189 79.5935618,2.59497645 C79.5935618,2.14955521 79.4215179,1.83139717 79.0774302,1.64050235 C78.7333425,1.44861329 78.2850164,1.35316588 77.7354881,1.35316588 L77.7354881,1.35316588 Z" id="path8352"></path>
                    <polygon id="path8354" points="80.897047 8.72647828 82.9129963 0.458346415 87.8800037 0.458346415 87.6482505 1.42475144 83.8470932 1.42475144 83.2398796 3.91831502 86.6159874 3.91831502 86.3842342 4.86085819 83.0202707 4.86085819 82.3047706 7.76007326 86.3842342 7.76007326 86.152481 8.72647828 80.897047 8.72647828"></polygon>
                </g>
                <path d="M16.2368893,32.4610152 C7.2974475,32.4610152 0.0505980992,25.3414758 0.0505980992,16.559079 C0.0505980992,7.77668218 7.2974475,0.657142857 16.2368893,0.657142857 C25.176331,0.657142857 32.4231804,7.77668218 32.4231804,16.559079 C32.4231804,25.3414758 25.176331,32.4610152 16.2368893,32.4610152 Z M23.3736835,14.292203 C23.6955067,12.1754579 22.0550179,11.0380429 19.8123756,10.2784406 L20.5400199,7.4100471 L18.7639201,6.97456829 L18.0555042,9.76739927 C17.5889617,9.65306122 17.109263,9.54468864 16.6315882,9.43830455 L17.3450642,6.62757718 L15.5699764,6.19209838 L14.8413201,9.05949765 C14.4547274,8.97299843 14.0752189,8.88749346 13.7068426,8.79701727 L13.7088667,8.78806907 L11.2587597,8.18754579 L10.7861451,10.051753 C10.7861451,10.051753 12.1037987,10.3480377 12.076474,10.3669283 C12.7960222,10.5439037 12.9265731,11.0111983 12.9043086,11.3820513 L12.075462,14.6481423 C12.1250511,14.6600733 12.1888086,14.6769754 12.2606622,14.7068027 C12.2009528,14.6908948 12.1382074,14.6759812 12.0724259,14.6600733 L10.9106239,19.237572 C10.8225779,19.4513344 10.5989209,19.7734694 10.0959456,19.6511774 C10.114162,19.6760335 8.80460463,19.3350078 8.80460463,19.3350078 L7.92212083,21.333438 L10.2335807,21.8991627 C10.6636903,22.0045526 11.0857038,22.1159079 11.4996211,22.2203035 L10.7648926,25.1205128 L12.5389684,25.5559916 L13.2676248,22.6866039 C13.7523836,22.8148613 14.2229742,22.9351648 14.6834445,23.0475144 L13.9578242,25.9029827 L15.7339241,26.3384615 L16.4696646,23.4442177 C19.4996606,24.0069597 21.7777237,23.7802721 22.7361092,21.0878598 C23.5092946,18.9194139 22.6976523,17.6696494 21.1037166,16.8543694 C22.2655186,16.5918891 23.1399063,15.8422292 23.3736835,14.292203 Z M19.3144604,19.8848247 C18.7649321,22.0522763 15.0508088,20.8800628 13.8465018,20.5857666 L14.8220916,16.7440084 C16.0263987,17.0392988 19.8882773,17.6239142 19.3144604,19.8848247 L19.3144604,19.8848247 Z M19.8639888,14.2613815 C19.3630375,16.2319728 16.2713082,15.2307692 15.2683937,14.9861852 L16.1529015,11.5003663 C17.155816,11.7469388 20.3851805,12.2052852 19.8639888,14.2613815 L19.8639888,14.2613815 Z" id="circle8306" fill="#F7931A"></path>
            </g>
        </g>
    </g>
</svg>