<?xml version="1.0" encoding="UTF-8"?>
<svg width="62px" height="62px" viewBox="0 0 62 62" version="1.1" xmlns="http://www.w3.org/2000/svg" xmlns:xlink="http://www.w3.org/1999/xlink">
    <!-- Generator: Sketch 48.2 (47327) - http://www.bohemiancoding.com/sketch -->
    <title>charge</title>
    <desc>Created with Sketch.</desc>
    <defs>
        <polygon id="path-1" points="0 62 62 62 62 0 0 0"></polygon>
    </defs>
    <g id="Sharge" stroke="none" stroke-width="1" fill="none" fill-rule="evenodd">
        <g id="Page-1">
            <path d="M50,56 L12,56 C9.243,56 7,53.757 7,51 L7,27 C7,24.243 9.243,22 12,22 L34,22 L34,24 L12,24 C10.346,24 9,25.346 9,27 L9,51 C9,52.654 10.346,54 12,54 L50,54 C51.654,54 53,52.654 53,51 L53,45 L55,45 L55,51 C55,53.757 52.757,56 50,56" id="Fill-1" fill="#0C101A"></path>
            <path d="M55,37 L53,37 L53,27 C53,25.346 51.654,24 50,24 L46,24 L46,22 L50,22 C52.757,22 55,24.243 55,27 L55,37 Z" id="Fill-3" fill="#0C101A"></path>
            <mask id="mask-2" fill="white">
                <use xlink:href="#path-1"></use>
            </mask>
            <g id="Clip-6"></g>
            <polygon id="Fill-5" fill="#0C101A" mask="url(#mask-2)" points="39 61 41 61 41 55 39 55"></polygon>
            <polygon id="Fill-7" fill="#0C101A" mask="url(#mask-2)" points="21 61 23 61 23 55 21 55"></polygon>
            <polygon id="Fill-8" fill="#0C101A" mask="url(#mask-2)" points="19 62 43 62 43 60 19 60"></polygon>
            <polygon id="Fill-9" fill="#0C101A" mask="url(#mask-2)" points="8 50 54 50 54 48 8 48"></polygon>
            <path d="M27,33 C27,37.418 23.418,41 19,41 C14.582,41 11,37.418 11,33 C11,28.582 14.582,25 19,25 C23.418,25 27,28.582 27,33" id="Fill-10" fill="#08C4FF" mask="url(#mask-2)"></path>
            <path d="M19.5,37 L18.5,37 C17.121,37 16,35.879 16,34.5 L16,34 L18,34 L18,34.5 C18,34.775 18.225,35 18.5,35 L19.5,35 C19.775,35 20,34.775 20,34.5 C20,34.225 19.775,34 19.5,34 L18.5,34 C17.121,34 16,32.879 16,31.5 C16,30.121 17.121,29 18.5,29 L19.5,29 C20.879,29 22,30.121 22,31.5 L22,32 L20,32 L20,31.5 C20,31.225 19.775,31 19.5,31 L18.5,31 C18.225,31 18,31.225 18,31.5 C18,31.775 18.225,32 18.5,32 L19.5,32 C20.879,32 22,33.121 22,34.5 C22,35.879 20.879,37 19.5,37" id="Fill-11" fill="#0C101A" mask="url(#mask-2)"></path>
            <polygon id="Fill-12" fill="#0C101A" mask="url(#mask-2)" points="18 30 20 30 20 28 18 28"></polygon>
            <polygon id="Fill-13" fill="#0C101A" mask="url(#mask-2)" points="18 38 20 38 20 36 18 36"></polygon>
            <path d="M48,20 C48,24.418 44.418,28 40,28 C35.582,28 32,24.418 32,20 C32,15.582 35.582,12 40,12 C44.418,12 48,15.582 48,20" id="Fill-14" fill="#08C4FF" mask="url(#mask-2)"></path>
            <path d="M40.5,24 L39.5,24 C38.121,24 37,22.879 37,21.5 L37,21 L39,21 L39,21.5 C39,21.775 39.225,22 39.5,22 L40.5,22 C40.775,22 41,21.775 41,21.5 C41,21.225 40.775,21 40.5,21 L39.5,21 C38.121,21 37,19.879 37,18.5 C37,17.121 38.121,16 39.5,16 L40.5,16 C41.879,16 43,17.121 43,18.5 L43,19 L41,19 L41,18.5 C41,18.225 40.775,18 40.5,18 L39.5,18 C39.225,18 39,18.225 39,18.5 C39,18.775 39.225,19 39.5,19 L40.5,19 C41.879,19 43,20.121 43,21.5 C43,22.879 41.879,24 40.5,24" id="Fill-15" fill="#0C101A" mask="url(#mask-2)"></path>
            <polygon id="Fill-16" fill="#0C101A" mask="url(#mask-2)" points="39 17 41 17 41 15 39 15"></polygon>
            <polygon id="Fill-17" fill="#0C101A" mask="url(#mask-2)" points="39 25 41 25 41 23 39 23"></polygon>
            <path d="M34,8 C34,12.418 30.418,16 26,16 C21.582,16 18,12.418 18,8 C18,3.582 21.582,0 26,0 C30.418,0 34,3.582 34,8" id="Fill-18" fill="#08C4FF" mask="url(#mask-2)"></path>
            <path d="M26.5,12 L25.5,12 C24.121,12 23,10.879 23,9.5 L23,9 L25,9 L25,9.5 C25,9.775 25.225,10 25.5,10 L26.5,10 C26.775,10 27,9.775 27,9.5 C27,9.225 26.775,9 26.5,9 L25.5,9 C24.121,9 23,7.879 23,6.5 C23,5.121 24.121,4 25.5,4 L26.5,4 C27.879,4 29,5.121 29,6.5 L29,7 L27,7 L27,6.5 C27,6.225 26.775,6 26.5,6 L25.5,6 C25.225,6 25,6.225 25,6.5 C25,6.775 25.225,7 25.5,7 L26.5,7 C27.879,7 29,8.121 29,9.5 C29,10.879 27.879,12 26.5,12" id="Fill-19" fill="#0C101A" mask="url(#mask-2)"></path>
            <polygon id="Fill-20" fill="#0C101A" mask="url(#mask-2)" points="25 5 27 5 27 3 25 3"></polygon>
            <polygon id="Fill-21" fill="#0C101A" mask="url(#mask-2)" points="25 13 27 13 27 11 25 11"></polygon>
            <polygon id="Fill-22" fill="#0C101A" mask="url(#mask-2)" points="62 46.9961 58 46.9961 58 33.9961 62 33.9961 62 35.9961 60 35.9961 60 44.9961 62 44.9961"></polygon>
            <path d="M56.1396,45.9961 L42.7826,45.9761 L32.5356,43.8921 L27.6006,41.4571 C26.2036,40.7681 25.6146,39.1171 26.2556,37.6991 C26.5846,36.9741 27.2056,36.4131 27.9616,36.1601 C28.7156,35.9081 29.5486,35.9831 30.2466,36.3631 L33.2346,37.9961 L41.7966,37.9691 L39.6326,36.8181 C38.3316,36.1291 37.6986,34.6041 38.1256,33.1941 C38.3716,32.3811 38.9256,31.7201 39.6846,31.3351 C40.4426,30.9501 41.3036,30.8921 42.1056,31.1751 L50.5336,34.1641 L53.2816,35.9961 L58.9996,35.9961 L58.9996,37.9961 L52.6756,37.9961 L49.5286,35.8981 L41.4436,33.0611 C41.1606,32.9631 40.8566,32.9821 40.5896,33.1181 C40.3226,33.2541 40.1266,33.4871 40.0396,33.7741 C39.8886,34.2711 40.1126,34.8081 40.5706,35.0521 L46.1606,38.0231 L42.2146,39.9961 L32.7226,39.9961 L29.2876,38.1191 C29.0746,38.0021 28.8276,37.9781 28.5956,38.0581 C28.3636,38.1351 28.1786,38.3011 28.0776,38.5241 C27.8826,38.9541 28.0626,39.4551 28.4856,39.6641 L33.3036,42.0411 L43.0766,43.9961 L55.8176,43.9961 L58.6856,43.0471 L59.3146,44.9451 L56.1396,45.9961 Z" id="Fill-23" fill="#0C101A" mask="url(#mask-2)"></path>
            <path d="M37.0498,39.3672 L35.4978,35.4862 C35.2838,34.9532 34.4758,34.8522 34.1398,35.3212 C33.9908,35.5282 33.9518,35.7852 34.0328,36.0262 L34.9258,38.6772 L33.0308,39.3152 L32.1388,36.6652 C31.8538,35.8182 31.9938,34.8802 32.5158,34.1542 C33.0358,33.4292 33.8808,32.9962 34.7738,32.9962 C35.9168,32.9962 36.9308,33.6812 37.3558,34.7432 L38.9068,38.6252 L37.0498,39.3672 Z" id="Fill-24" fill="#0C101A" mask="url(#mask-2)"></path>
            <polygon id="Fill-25" fill="#0C101A" mask="url(#mask-2)" points="4 13 6 13 6 11 4 11"></polygon>
            <polygon id="Fill-26" fill="#0C101A" mask="url(#mask-2)" points="2.1719 14.5859 0.7579 13.1719 2.1719 11.7579 3.5859 13.1719"></polygon>
            <polygon id="Fill-27" fill="#0C101A" mask="url(#mask-2)" points="0 17 2 17 2 15 0 15"></polygon>
            <polygon id="Fill-28" fill="#0C101A" mask="url(#mask-2)" points="2.1719 20.2422 0.7579 18.8282 2.1719 17.4142 3.5859 18.8282"></polygon>
            <polygon id="Fill-29" fill="#0C101A" mask="url(#mask-2)" points="4 21 6 21 6 19 4 19"></polygon>
            <polygon id="Fill-30" fill="#0C101A" mask="url(#mask-2)" points="7.8281 20.2422 6.4141 18.8282 7.8281 17.4142 9.2421 18.8282"></polygon>
            <polygon id="Fill-31" fill="#0C101A" mask="url(#mask-2)" points="8 17 10 17 10 15 8 15"></polygon>
            <polygon id="Fill-32" fill="#0C101A" mask="url(#mask-2)" points="7.8281 14.5859 6.4141 13.1719 7.8281 11.7579 9.2421 13.1719"></polygon>
        </g>
    </g>
</svg>