<?xml version="1.0" encoding="UTF-8"?>
<svg width="126px" height="52px" viewBox="0 0 126 52" version="1.1" xmlns="http://www.w3.org/2000/svg" xmlns:xlink="http://www.w3.org/1999/xlink">
    <!-- Generator: Sketch 48.2 (47327) - http://www.bohemiancoding.com/sketch -->
    <title>Ebay-light</title>
    <desc>Created with Sketch.</desc>
    <defs>
        <linearGradient x1="52.7544869%" y1="50%" x2="106.225742%" y2="50%" id="linearGradient-1">
            <stop stop-color="#F5F6F8" stop-opacity="0.8" offset="0%"></stop>
            <stop stop-color="#E4E8EE" stop-opacity="0.5" offset="100%"></stop>
        </linearGradient>
    </defs>
    <g id="methods-gray-co-big" stroke="none" stroke-width="1" fill="none" fill-rule="evenodd" transform="translate(-203.000000, -780.000000)">
        <g id="Group-2" fill="url(#linearGradient-1)">
            <g id="Ebay-light" transform="translate(203.000000, 780.000000)">
                <path d="M16.3239082,11.3060798 C7.44270198,11.3060798 0.0419987274,15.16142 0.0419987274,26.7928053 C0.0419987274,36.0074232 5.01843594,41.810236 16.5532307,41.810236 C30.1302242,41.810236 31.0005587,32.6589889 31.0005587,32.6589889 L24.4218647,32.6589889 C24.4218647,32.6589889 23.0113376,37.5865837 16.1519161,37.5865837 C10.5651046,37.5865837 6.5468508,33.7248982 6.5468508,28.3121843 L31.6885267,28.3121843 L31.6885267,24.9156264 C31.6885267,19.5607506 28.3662973,11.3060798 16.3239082,11.3060798 L16.3239082,11.3060798 Z M16.0945852,15.6470557 C21.4126513,15.6470557 25.0381694,18.9806627 25.0381694,23.9770367 L6.69235602,23.9770367 C6.69235602,18.6727745 11.4245809,15.6470557 16.0945852,15.6470557 L16.0945852,15.6470557 Z" id="e"></path>
                <path d="M31.68386,0.0430064883 L31.68386,35.9689999 C31.68386,38.0082732 31.5416157,40.8716467 31.5416157,40.8716467 L37.8163036,40.8716467 C37.8163036,40.8716467 38.0415235,38.8151314 38.0415235,36.9356765 C38.0415235,36.9356765 41.1416246,41.8982286 49.5710292,41.8982286 C58.4475318,41.8982286 64.4770014,35.5924705 64.4770014,26.5581577 C64.4770014,18.1536667 58.9387386,11.3940724 49.5853596,11.3940724 C40.8265809,11.3940724 38.1048948,16.2336741 38.1048948,16.2336741 L38.1048948,0.0430064883 L31.68386,0.0430064883 Z M47.9657682,15.8377066 C53.993604,15.8377066 57.8266458,20.4152799 57.8266458,26.5581577 C57.8266458,33.1452792 53.3996106,37.4545944 48.0087678,37.4545944 C41.5752691,37.4545944 38.1048948,32.3147098 38.1048948,26.6168197 C38.1048948,21.3074964 41.2189634,15.8377066 47.9657682,15.8377066 L47.9657682,15.8377066 Z" id="b"></path>
                <path d="M80.070942,11.3060798 C66.709839,11.3060798 65.8529382,18.7918348 65.8529382,19.988032 L72.5032938,19.988032 C72.5032938,19.988032 72.8520366,15.6177247 79.6122978,15.6177247 C84.0052248,15.6177247 87.4092702,17.6751245 87.4092702,21.6305633 L87.4092702,23.0384474 L79.6122978,23.0384474 C69.2612634,23.0384474 63.789033,26.1368438 63.789033,32.4243417 C63.789033,38.6121427 68.8451988,41.9788888 75.6779814,41.9788888 C84.990003,41.9788888 87.9897396,36.7139889 87.9897396,36.7139889 C87.9897396,38.8080779 88.1475252,40.8716467 88.1475252,40.8716467 L94.0596258,40.8716467 C94.0596258,40.8716467 93.8303016,38.3137887 93.8303016,36.677325 L93.8303016,22.5324892 C93.8303016,13.257914 86.5191474,11.3060798 80.070942,11.3060798 L80.070942,11.3060798 Z M87.4092702,27.2620997 L87.4092702,29.1392787 C87.4092702,31.5876316 85.9327476,37.6745763 77.2402428,37.6745763 C72.4802568,37.6745763 70.4393928,35.2438316 70.4393928,32.4243417 C70.4393928,27.2951335 77.3121804,27.2620997 87.4092702,27.2620997 L87.4092702,27.2620997 Z" id="a"></path>
                <polygon id="y" points="90.2491842 12.4804989 97.7308374 12.4804989 108.468049 34.4912588 119.180695 12.4804989 125.958 12.4804989 106.445098 51.666594 99.3360942 51.666594 104.966786 40.7429356"></polygon>
            </g>
        </g>
    </g>
</svg>