<?xml version="1.0" encoding="UTF-8"?>
<svg width="123px" height="35px" viewBox="0 0 123 35" version="1.1" xmlns="http://www.w3.org/2000/svg" xmlns:xlink="http://www.w3.org/1999/xlink">
    <!-- Generator: Sketch 48.2 (47327) - http://www.bohemiancoding.com/sketch -->
    <title>Klarna-light</title>
    <desc>Created with Sketch.</desc>
    <defs>
        <linearGradient x1="52.7544869%" y1="50%" x2="106.225742%" y2="50%" id="linearGradient-1">
            <stop stop-color="#F5F6F8" stop-opacity="0.8" offset="0%"></stop>
            <stop stop-color="#E4E8EE" stop-opacity="0.5" offset="100%"></stop>
        </linearGradient>
    </defs>
    <g id="methods-gray-co-big" stroke="none" stroke-width="1" fill="none" fill-rule="evenodd" transform="translate(-734.000000, -234.000000)">
        <g id="Group-2" fill="url(#linearGradient-1)">
            <g id="Klarna-light" transform="translate(734.000000, 234.000000)">
                <path d="M99.6039716,18.0326142 C99.6572981,22.8476142 99.6242865,27.6576142 99.6242865,32.4626142 C99.6242865,33.5901142 99.4897006,33.7176142 98.3190581,33.7176142 C96.9655819,33.7251142 95.6070271,33.7251142 94.2510116,33.7176142 C93.1921006,33.7176142 93.072751,33.6051142 93.072751,32.5876142 C93.072751,27.9176142 93.0879871,23.2501142 93.0575148,18.5776142 C93.0575148,17.7976142 92.9483226,17.0151142 92.8035794,16.2451142 C92.5978916,15.1326142 91.8310065,14.5001142 90.7365445,14.3226142 C88.7482297,13.9976142 86.9605239,14.6176142 85.2947071,15.6276142 C85.0737832,15.7626142 84.9874452,16.2501142 84.9874452,16.5751142 C84.964591,20.5051142 84.972209,24.4351142 84.972209,28.3651142 C84.972209,29.8451142 84.9544335,31.3201142 84.9798271,32.7951142 C84.9925239,33.4726142 84.6903406,33.7326142 84.019951,33.7251142 C82.5191923,33.6976142 81.0184335,33.7176142 79.5176748,33.7126142 C78.6492155,33.7076142 78.4105161,33.4676142 78.4105161,32.5951142 C78.4079768,25.1626142 78.4079768,17.7326142 78.4105161,10.3001142 C78.4105161,9.51761419 78.6492155,9.27261419 79.4465729,9.26761419 C80.800049,9.25511419 82.1509858,9.25761419 83.5146194,9.26511419 C84.3729213,9.27011419 84.5202039,9.42761419 84.5405187,10.2676142 C84.5455974,10.5901142 84.5760697,10.9076142 84.5963845,11.4201142 C85.0407716,11.1426142 85.2997858,10.9876142 85.5588,10.8176142 C88.2022684,9.05261419 91.1377626,8.62261419 94.218,9.16011419 C97.0392232,9.64511419 98.5755329,11.5026142 99.1468877,14.1401142 C99.4338348,15.4176142 99.5887355,16.7326142 99.6039716,18.0326142 L99.6039716,18.0326142 Z" id="Path"></path>
                <path d="M58.0804413,16.4076142 C58.2251845,21.8526142 58.1972516,27.3076142 58.2302632,32.7601142 C58.2328026,33.4876142 57.963631,33.7251142 57.2043639,33.7301142 C55.8965961,33.7351142 54.5913677,33.7326142 53.2861394,33.7301142 C52.1789806,33.7301142 52.0418555,33.5951142 51.9859897,32.5201142 C51.980911,32.4026142 51.9580568,32.2876142 51.9275845,32.0601142 C51.1835535,32.4676142 50.5512542,32.8576142 49.8859432,33.1751142 C47.5624335,34.2826142 45.1424284,34.3851142 42.699569,33.6776142 C40.5004877,33.0326142 39.1546297,31.5426142 38.6162865,29.3551142 C38.2277652,27.7751142 38.1947535,26.1876142 38.5172516,24.6151142 C39.0200439,22.1801142 40.6884,20.8276142 43.0093703,20.1426142 C45.2566994,19.4726142 47.5700516,19.3976142 49.8910219,19.4201142 C51.55176,19.4401142 51.5542994,19.4251142 51.5492206,17.7676142 C51.5492206,17.3401142 51.5796929,16.9001142 51.5009729,16.4851142 C51.2521161,15.1501142 50.3430271,14.3176142 48.8448077,14.3176142 C46.3359252,14.3176142 43.8245032,14.4226142 41.31816,14.5626142 C40.0891123,14.6351142 39.9265935,14.5751142 39.9265935,13.3526142 C39.9265935,12.4951142 39.9418297,11.6351142 39.9215148,10.7826142 C39.9113574,10.3051142 40.101809,9.97761419 40.5639716,9.88261419 C44.4568026,9.06511419 48.3699484,8.50011419 52.3186452,9.46511419 C55.8788206,10.3276142 57.9839458,12.7651142 58.0804413,16.4076142 Z M51.7041213,27.4626142 C51.6457161,26.8951142 51.6914245,26.3201142 51.6914245,25.7451142 C51.6914245,25.0076142 51.7193574,24.2676142 51.6711097,23.5326142 C51.6584129,23.3476142 51.4019381,23.0251142 51.2673523,23.0301142 C49.7538968,23.0826142 48.2328232,23.1226142 46.7295252,23.3051142 C45.8077394,23.4201142 45.132271,24.0826142 44.9468981,24.9876142 C44.7742219,25.8351142 44.7234348,26.7301142 44.7945368,27.5976142 C44.8757961,28.5476142 45.5715794,29.1026142 46.5212981,29.2626142 C48.0474503,29.5226142 49.4847252,29.2301142 50.9067639,28.6876142 C51.5187484,28.4576142 51.7803019,28.1226142 51.7041213,27.4626142 Z" id="Path"></path>
                <path d="M122.71464,17.7551142 C122.727337,22.7101142 122.722258,27.6676142 122.719719,32.6226142 C122.719719,33.6051142 122.59529,33.7176142 121.582088,33.7176142 C120.322568,33.7251142 119.068126,33.7251142 117.808606,33.7176142 C116.726841,33.7176142 116.658279,33.6551142 116.602413,32.6176142 C116.597334,32.4951142 116.584637,32.3776142 116.559244,32.2576142 C116.554165,32.2126142 116.508457,32.1851142 116.434815,32.0751142 C116.277375,32.1451142 116.132632,32.1901142 116.018361,32.2701142 C114.33223,33.5076142 112.392163,33.9901142 110.332746,34.1476142 C106.257081,34.4726142 103.141293,31.8326142 102.948302,27.8126142 C102.900054,26.8226142 102.874661,25.8126142 103.024483,24.8401142 C103.395228,22.4951142 104.862975,20.9376142 107.125541,20.3101142 C108.831987,19.8401142 110.622232,19.6401142 112.387084,19.4351142 C113.412983,19.3126142 114.466815,19.4001142 115.507951,19.4151142 C115.965035,19.4301142 116.191037,19.2751142 116.165644,18.8051142 C116.127554,18.0976142 116.193577,17.3701142 116.071688,16.6701142 C115.799977,15.1076142 114.901045,14.2951142 113.296173,14.3001142 C110.810145,14.3151142 108.324116,14.4251142 105.835548,14.5626142 C104.586186,14.6276142 104.408431,14.5301142 104.408431,13.2651142 C104.408431,12.4801142 104.41097,11.6926142 104.408431,10.9076142 C104.405892,10.2976142 104.672524,9.95761419 105.307363,9.81261419 C108.199688,9.17011419 111.119946,8.82261419 114.075755,9.00511419 C115.312421,9.08261419 116.569401,9.35011419 117.747662,9.73761419 C120.558728,10.6601142 122.110274,12.6951142 122.562279,15.5451142 C122.67655,16.2801142 122.712101,17.0226142 122.71464,17.7551142 Z M116.318005,27.6901142 C116.287533,27.0426142 116.312926,26.4026142 116.307848,25.7626142 C116.307848,25.0776142 116.295151,24.3826142 116.318005,23.6926142 C116.328163,23.2226142 116.163105,22.9851142 115.647615,23.0076142 C114.730908,23.0276142 113.804044,22.9551142 112.892415,23.0251142 C109.837572,23.2526142 109.283992,24.3701142 109.245902,26.8426142 C109.225587,28.2976142 109.913752,29.0826142 111.089474,29.2801142 C112.722279,29.5426142 114.248431,29.2101142 115.733954,28.5626142 C116.137711,28.3851142 116.335781,28.1451142 116.318005,27.6901142 Z" id="Path"></path>
                <path d="M33.7991303,0.830114193 L29.58888,0.830114193 C28.5350477,0.832614193 28.4360129,0.935114193 28.4360129,1.98511419 L28.4360129,17.2051142 L28.4360129,32.7126142 C28.4360129,33.5701142 28.5858348,33.7126142 29.4441368,33.7176142 C30.8204671,33.7251142 32.1993368,33.7176142 33.5807458,33.7176142 C34.8783561,33.7176142 34.9977058,33.6051142 34.9977058,32.3451142 L34.9977058,6.26261419 C34.9977058,4.83261419 35.0002452,3.40511419 34.9977058,1.97511419 C34.9951665,1.00261419 34.8123329,0.832614193 33.7991303,0.830114193 L33.7991303,0.830114193 Z" id="Path"></path>
                <path d="M74.7462271,8.97511419 C72.8569471,9.05511419 71.1505006,9.64011419 69.621809,10.7276142 C69.4135819,10.8776142 69.2053548,11.0151142 68.8930142,11.2351142 C68.8676206,10.8926142 68.8396877,10.6901142 68.8396877,10.4851142 C68.8193729,9.46011419 68.6365394,9.27011419 67.6182581,9.27011419 C66.3054116,9.26511419 65.0052619,9.26761419 63.6974942,9.26761419 C62.5014581,9.27011419 62.3033884,9.46011419 62.3033884,10.6326142 L62.3033884,20.4926142 C62.3033884,24.4776142 62.300849,28.4551142 62.3033884,32.4276142 C62.3033884,33.4826142 62.5395484,33.7176142 63.5578297,33.7176142 C64.93416,33.7251142 66.3181084,33.7251142 67.6969781,33.7176142 C68.8092155,33.7176142 68.9869703,33.5526142 68.9869703,32.4226142 C68.9895097,27.1401142 68.9945884,21.8501142 68.9768129,16.5551142 C68.9768129,16.0326142 69.1317135,15.7351142 69.6192697,15.5076142 C71.2342994,14.7601142 72.8899587,14.2001142 74.7055974,14.2726142 C75.3709084,14.3001142 75.6934065,14.0526142 75.6781703,13.3601142 C75.6502374,12.1901142 75.6553161,11.0276142 75.675631,9.86011419 C75.6781703,9.22261419 75.3886839,8.95011419 74.7462271,8.97511419 L74.7462271,8.97511419 Z" id="Path"></path>
                <path d="M6.21665806,0.832614193 C4.93428387,0.825114193 3.65190968,0.820114193 2.36699613,0.835114193 C1.02113806,0.855114193 0.277107097,1.61011419 0.277107097,2.94011419 L0.277107097,17.6651142 L0.277107097,32.6051142 C0.277107097,33.4776142 0.396456774,33.5951142 1.28523097,33.5951142 C2.59045935,33.6051142 3.8982271,33.6051142 5.20345548,33.5951142 C6.5747071,33.5851142 7.26287226,32.9126142 7.26287226,31.5701142 L7.26287226,1.90511419 C7.26541161,1.03761419 7.08003871,0.840114193 6.21665806,0.832614193 L6.21665806,0.832614193 Z" id="Path"></path>
                <path d="M20.6401935,23.2576142 C17.8367458,20.3726142 14.3883019,18.7851142 10.6275174,18.4176142 C9.41370581,18.3951142 9.40354839,18.3951142 9.43656,19.2976142 C9.44925677,19.6301142 9.51528,19.9576142 9.5660671,20.2876142 C10.2389961,24.6751142 12.4177626,28.1701142 16.0439613,30.7826142 C18.4207974,32.5026142 21.1099742,33.3951142 24.0378503,33.6651142 C24.908849,33.7476142 25.0561316,33.6876142 24.9697935,32.8476142 C24.5965084,29.1876142 23.2430323,25.9401142 20.6401935,23.2576142 L20.6401935,23.2576142 Z" id="Path"></path>
                <path d="M24.0581652,0.912614193 C23.7255097,0.965114193 23.3801574,0.945114193 23.0500413,0.995114193 C19.2359303,1.59261419 15.9982529,3.25511419 13.4233471,6.10261419 C11.0642865,8.70761419 9.75397935,11.7801142 9.44417806,15.2501142 C9.36545806,16.1551142 9.41624516,16.1576142 10.3837394,16.2801142 C11.7118219,15.9576142 13.093231,15.7601142 14.3629084,15.2851142 C20.7036774,12.9151142 24.1724361,8.31511419 24.9723329,1.71511419 C25.0739071,0.877614193 24.9317032,0.782614193 24.0581652,0.912614193 L24.0581652,0.912614193 Z" id="Path"></path>
            </g>
        </g>
    </g>
</svg>