<?xml version="1.0" encoding="UTF-8"?>
<svg width="78px" height="90px" viewBox="0 0 78 90" version="1.1" xmlns="http://www.w3.org/2000/svg" xmlns:xlink="http://www.w3.org/1999/xlink">
    <!-- Generator: Sketch 48.2 (47327) - http://www.bohemiancoding.com/sketch -->
    <title>Laser-light</title>
    <desc>Created with Sketch.</desc>
    <defs>
        <linearGradient x1="52.7544869%" y1="50%" x2="106.225742%" y2="50%" id="linearGradient-1">
            <stop stop-color="#F5F6F8" stop-opacity="0.8" offset="0%"></stop>
            <stop stop-color="#E4E8EE" stop-opacity="0.5" offset="100%"></stop>
        </linearGradient>
    </defs>
    <g id="methods-gray-co-big" stroke="none" stroke-width="1" fill="none" fill-rule="evenodd" transform="translate(-629.000000, -974.000000)">
        <g id="Group-2" fill="url(#linearGradient-1)">
            <g id="Laser-light" transform="translate(629.000000, 974.000000)">
                <path d="M39.7529746,83.6156758 C39.1992845,83.358973 38.6416394,83.1119207 38.0938817,82.8494277 C37.8209915,82.7201112 37.5441465,82.5811443 37.3028958,82.4016454 C36.9528845,82.1410824 36.8579662,81.7762943 36.9647493,81.3555334 C37.0675775,80.9560035 37.3444225,80.7436929 37.741893,80.6954405 C38.0721296,80.6549085 38.414231,80.6394677 38.7464451,80.6703493 C39.3218873,80.7301822 39.8953521,80.8324773 40.5004563,80.9193317 C40.630969,80.3866252 40.7674141,79.8423381 40.9177014,79.2304976 C40.265138,79.1243424 39.6442141,78.9892356 39.0213127,78.9255425 C38.0563099,78.8271076 37.1051493,78.8869406 36.1836507,79.2459384 C33.8759493,80.1434331 33.7592789,83.1331518 35.2364451,84.2333065 C35.6477577,84.5382617 36.1164169,84.7679431 36.5751887,85.0092051 C37.0339606,85.2504671 37.5263493,85.4280359 37.9732563,85.6866688 C38.5091493,85.9935541 38.6515268,86.3776432 38.5150817,86.9296506 C38.4082986,87.3562019 38.0602648,87.6418561 37.4749352,87.6534366 C36.8975155,87.6650172 36.3121859,87.6283454 35.7387211,87.5453513 C35.2601746,87.4758678 34.7954704,87.3137397 34.3070366,87.1882835 C34.1448845,87.7460812 33.9847099,88.2961586 33.8166254,88.8693971 C34.929938,89.268927 36.0412732,89.4831677 37.2000676,89.4619366 C38.1452958,89.4426356 39.0351549,89.249626 39.8656901,88.7786826 C41.503031,87.8445161 42.0705634,84.684949 39.7529746,83.6156758 L39.7529746,83.6156758 Z" id="Path"></path>
                <path d="M9.74099155,79.1397831 L7.12876056,79.1397831 L7.12876056,89.2476959 L13.3854592,89.2476959 C13.4685127,88.6841079 13.7493127,88.1456111 13.8382986,87.5337707 L9.74099155,87.5337707 L9.74099155,79.1397831 L9.74099155,79.1397831 Z" id="Path"></path>
                <path d="M29.2032,89.1203096 C29.2249521,89.1801426 29.2368169,89.2515561 29.2546141,89.3268299 L26.4624338,89.3306901 L26.3813577,89.108729 C26.1974535,88.4756575 26.003662,87.8483763 25.8098704,87.2172349 C25.7762535,87.0994991 25.7307718,86.9952739 25.6852901,86.8698177 C24.6095493,86.8698177 23.4448225,86.8659575 22.3809465,86.8833283 C22.2998704,86.8833283 22.2820732,86.997204 22.2504338,87.0840583 C22.0032507,87.7595919 21.7679324,88.4370556 21.5425014,89.1203096 L21.4218761,89.3210396 L19.1161521,89.2766474 C19.3000563,88.7555215 19.4760507,88.1919334 19.656,87.701689 C20.6506648,84.9493721 21.5879831,82.5000803 22.5727606,79.7439032 C22.6657014,79.47948 21.9300845,79.0992511 22.212862,79.1050414 C23.0216451,79.1262725 24.7519268,79.1146919 25.5587324,79.1089016 C25.7287944,79.1089016 25.8336,79.137853 25.8949014,79.3212122 C26.9943718,82.5425424 28.0997746,85.8989794 29.2032,89.1203096 Z M24.0558592,81.5929352 C23.6465239,82.8301267 23.2490535,84.022926 22.8456507,85.2466069 L25.186969,85.2466069 C24.8132282,84.0325765 24.4414648,82.8378471 24.0558592,81.5929352 Z" id="Path"></path>
                <path d="M50.6745127,84.8818188 L54.2398817,84.8818188 L54.2398817,83.2026352 L50.6784676,83.2026352 L50.6784676,80.8073861 L54.4376282,80.8073861 C54.5226592,80.2341476 54.6076901,79.6898605 54.6927211,79.1397831 L48.0365746,79.1397831 L48.0365746,89.2457658 L54.7797296,89.2457658 C54.8687155,88.6744574 54.9537465,88.1301704 55.0427324,87.5414911 L50.6745127,87.5414911 C50.6745127,86.6420663 50.6745127,85.7793134 50.6745127,84.8818188 L50.6745127,84.8818188 Z" id="Path"></path>
                <path d="M67.4829634,84.1850541 C67.5304225,84.1696133 67.5798592,84.1503124 67.6233634,84.1387318 C68.4341239,83.8395669 69.0590028,83.3435322 69.2785014,82.4962201 C69.5968732,81.2609586 69.3220056,79.9948157 67.9358028,79.4717596 C67.6075437,79.3463034 67.3603606,79.2536588 67.0083718,79.1918957 C66.7967831,79.1552239 66.4744563,79.1320627 66.2628676,79.1069715 L61.5940732,79.1185521 L61.5940732,89.2727872 L64.2320113,89.2727872 L64.2280563,80.786155 C64.8193183,80.724392 65.3947606,80.705091 65.9543831,80.9077511 C66.3320789,81.0409277 66.5871718,81.3111411 66.660338,81.7029506 C66.8383099,82.6332569 66.5673972,83.4574079 65.3235718,83.5732137 C65.0961634,83.5944447 64.558293,83.5905845 64.3229746,83.5847942 L67.6747775,89.3519211 L70.4135662,89.3557813 L67.3386085,84.2275162 C67.3860676,84.2101454 67.4335268,84.202425 67.4829634,84.1850541 L67.4829634,84.1850541 Z" id="Path"></path>
                <g id="Layer_1_copy_11_">
                    <path d="M54.1508958,41.4932604 L77.8686085,41.4932604 L77.8686085,42.4776094 L53.5616113,42.4776094 L52.6124282,44.0757289 L36.8757634,42.4776094 L0.00197746479,42.4776094 L0.00197746479,41.4932604 L35.6082085,41.4932604 L55.1079887,39.8932108 L54.1508958,41.4932604 L54.1508958,41.4932604 Z M52.3474479,44.8130256 L36.4545634,46.4130752 L0.00197746479,46.4130752 L0.00197746479,47.3993542 L37.3582648,47.3993542 L49.8578197,48.9955436 L50.8070028,47.3993542 L77.8705859,47.3993542 L77.8705859,46.4130752 L51.3943099,46.4130752 L52.3474479,44.8130256 L52.3474479,44.8130256 Z M49.5967944,49.7328403 L37.3009183,51.3309598 L0.00197746479,51.3309598 L0.00197746479,52.3172389 L37.8427437,52.3172389 L47.1012338,53.9153584 L48.0543718,52.3172389 L77.8705859,52.3172389 L77.8705859,51.3309598 L48.6397014,51.3309598 L49.5967944,49.7328403 L49.5967944,49.7328403 Z M46.8362535,54.652655 L38.1433183,56.2527046 L0.00197746479,56.2527046 L0.00197746479,57.2370536 L38.3272225,57.2370536 L44.3426704,58.8351731 L45.2958085,57.2370536 L77.8705859,57.2370536 L77.8705859,56.2527046 L45.885093,56.2527046 L46.8362535,54.652655 L46.8362535,54.652655 Z M44.0856,59.5724698 L37.6153352,61.1725194 L0.00395492958,61.1725194 L0.00395492958,62.1607285 L37.5757859,62.1607285 L41.5920169,63.7569179 L42.5451549,62.1607285 L77.8705859,62.1607285 L77.8705859,61.1725194 L43.128507,61.1725194 L44.0856,59.5724698 L44.0856,59.5724698 Z M63.3718141,25.3402869 L36.9588169,26.7357463 L0.00197746479,26.7357463 L0.00197746479,27.7200953 L32.1595099,27.7200953 L60.8821859,29.5247351 L61.9559493,27.7200953 L77.8725634,27.7200953 L77.8725634,26.7357463 L62.5432563,26.7357463 L63.3718141,25.3402869 L63.3718141,25.3402869 Z M57.8586423,34.9753262 L34.7618535,36.5734457 L0.00197746479,36.5734457 L0.00197746479,37.5577947 L36.3912845,37.5577947 L55.3709915,39.1559142 L56.3221521,37.5577947 L77.8686085,37.5577947 L77.8686085,36.5734457 L56.9055042,36.5734457 L57.8586423,34.9753262 L57.8586423,34.9753262 Z M60.6172056,30.0555115 L33.9194535,31.6555611 L0.00197746479,31.6555611 L0.00197746479,32.63991 L35.9068056,32.63991 L58.1236225,34.2399596 L59.0767606,32.63991 L77.8705859,32.63991 L77.8705859,31.6555611 L59.6601127,31.6555611 L60.6172056,30.0555115 L60.6172056,30.0555115 Z M75.0526986,4.71914112 L77.5462817,0.536623061 L28.9283324,2.13667265 L0.00197746479,2.13667265 L0.00197746479,3.12102162 L33.1067155,3.12102162 L75.0526986,4.71914112 L75.0526986,4.71914112 Z M41.3250592,64.6602029 L37.516462,66.0961943 L0.00197746479,66.0961943 L0.00197746479,67.0805433 L36.6167155,67.0805433 L38.8334535,68.8407908 L39.8854648,67.0805433 L77.8705859,67.0805433 L77.8705859,66.0961943 L40.4707944,66.0961943 L41.3250592,64.6602029 L41.3250592,64.6602029 Z M66.5219155,20.2178121 L32.3038648,21.8159316 L0.00197746479,21.8159316 L0.00197746479,22.8002806 L35.0466085,22.8002806 L64.0283324,24.4003301 L64.9814704,22.8002806 L77.8705859,22.8002806 L77.8705859,21.8159316 L65.5648225,21.8159316 L66.5219155,20.2178121 L66.5219155,20.2178121 Z M38.5704507,69.4101691 L35.1711887,71.0082886 L0.00197746479,71.0082886 L0.00197746479,71.9926376 L34.8290873,71.9926376 L36.0788451,73.5907571 L37.0319831,71.9926376 L77.8705859,71.9926376 L77.8705859,71.0082886 L37.6173127,71.0082886 L38.5704507,69.4101691 L38.5704507,69.4101691 Z M69.2785014,15.2979974 L31.4614648,16.8961169 L2.13162821e-14,16.8961169 L2.13162821e-14,17.8804658 L34.5601521,17.8804658 L66.7809634,19.4805154 L67.7341014,17.8804658 L77.8686085,17.8804658 L77.8686085,16.8961169 L68.3214085,16.8961169 L69.2785014,15.2979974 L69.2785014,15.2979974 Z M74.7877183,5.45643779 L29.7727099,7.05648739 L0.00197746479,7.05648739 L0.00197746479,8.04083635 L33.5911944,8.04083635 L72.2980901,9.63895585 L73.2472732,8.04083635 L77.8705859,8.04083635 L77.8705859,7.05648739 L73.8345803,7.05648739 L74.7877183,5.45643779 L74.7877183,5.45643779 Z M72.0291549,10.3781826 L30.6170873,11.9763021 L0.00197746479,11.9763021 L0.00197746479,12.9606511 L34.0756732,12.9606511 L69.5415042,14.5607007 L70.4926648,12.9606511 L77.8686085,12.9606511 L77.8686085,11.9763021 L71.0760169,11.9763021 L72.0291549,10.3781826 L72.0291549,10.3781826 Z" id="Shape"></path>
                </g>
            </g>
        </g>
    </g>
</svg>