<?xml version="1.0" encoding="UTF-8"?>
<svg width="20px" height="14px" viewBox="0 0 20 14" version="1.1" xmlns="http://www.w3.org/2000/svg" xmlns:xlink="http://www.w3.org/1999/xlink">
    <!-- Generator: Sketch 48.2 (47327) - http://www.bohemiancoding.com/sketch -->
    <title>Toggle Menu</title>
    <desc>Created with Sketch.</desc>
    <defs></defs>
    <g id="Desktop-HD" stroke="none" stroke-width="1" fill="none" fill-rule="evenodd" transform="translate(-1140.000000, -102.000000)" fill-opacity="0.89954144">
        <g id="Header" transform="translate(135.000000, 89.000000)" fill="#0C101A">
            <g id="Group-3" transform="translate(1005.000000, 0.000000)">
                <g id="Group-2" transform="translate(0.000000, 13.000000)">
                    <rect id="Rectangle-2" x="0" y="0" width="20" height="2" rx="1"></rect>
                    <rect id="Rectangle-2" x="0" y="6" width="20" height="2" rx="1"></rect>
                    <rect id="Rectangle-2" x="0" y="12" width="20" height="2" rx="1"></rect>
                </g>
            </g>
        </g>
    </g>
</svg>