<?xml version="1.0" encoding="UTF-8"?>
<svg width="168px" height="32px" viewBox="0 0 168 32" version="1.1" xmlns="http://www.w3.org/2000/svg" xmlns:xlink="http://www.w3.org/1999/xlink">
    <!-- Generator: Sketch 48.2 (47327) - http://www.bohemiancoding.com/sketch -->
    <title>WorldPay-light</title>
    <desc>Created with Sketch.</desc>
    <defs></defs>
    <g id="methods-gray-co-big" stroke="none" stroke-width="1" fill="none" fill-rule="evenodd" transform="translate(-1114.000000, -405.000000)">
        <g id="Group-2">
            <g id="WorldPay-light" transform="translate(1114.000000, 405.000000)">
                <path d="M50.5584057,24.800381 L55.0502134,10.5853968 C55.1809939,10.1561905 55.3151278,10.0274286 55.8818433,9.92838095 L57.078988,9.73688889 L57.078988,8.01511111 L50.7897866,8.01511111 L50.4276252,9.73688889 L52.588857,9.9944127 L48.8951458,21.7662222 L45.6709031,8.48228571 L42.1750394,8.48228571 L38.3522243,21.7992381 L34.628333,9.9944127 L36.7560314,9.73688889 L36.7560314,8.01511111 L30.071135,8.01511111 L29.6687335,9.73688889 L31.1006124,10.0274286 C31.5013373,10.1231746 31.6656513,10.1892063 31.7997852,10.5853968 L36.4894403,24.7970794 L40.1496181,24.7970794 L43.8047658,11.8020317 L47.000505,24.7970794 L50.5584057,24.800381" id="Fill-1" fill="#8A8B87"></path>
                <path d="M65.2963637,25.152 C70.9484293,25.152 73.4734992,21.5961905 73.4734992,16.0990476 C73.4734992,11.1928889 71.2787339,7.64533333 65.6266684,7.64533333 C59.9746028,7.64533333 57.315399,11.159873 57.315399,16.2971429 C57.315399,21.4971429 59.5436977,25.152 65.2963637,25.152 L65.2963637,25.152 Z M65.3936108,22.7732063 C62.1240979,22.7732063 60.4390413,20.6816508 60.4390413,16.3301587 C60.4390413,12.008381 62.323622,10.1132698 65.5596014,10.1132698 C68.7620474,10.1132698 70.349857,12.008381 70.349857,16.2971429 C70.349857,20.7790476 68.5977334,22.7732063 65.3936108,22.7732063 L65.3936108,22.7732063 Z" id="Fill-2" fill="#8A8B87"></path>
                <path d="M83.6693494,24.7789206 L83.6693494,23.0604444 L80.5373237,22.7979683 C80.0292917,22.7666032 79.9940816,22.6692063 79.9940816,22.1426032 L79.9940816,12.2593016 C80.777088,11.536254 82.5107682,10.1892063 84.0449242,10.1892063 C84.3467254,10.1892063 84.415469,10.2535873 84.4523558,10.5177143 L84.8597874,12.8040635 L87.1870099,12.9047619 L87.1870099,7.95238095 C86.5934676,7.76749206 85.5790802,7.63542857 84.8229006,7.63542857 C82.5107682,7.63542857 80.8458316,9.04355556 79.7325206,10.2535873 L79.6352735,10.223873 L79.3133522,7.98539683 L75.009332,7.98539683 L74.7108841,9.72863492 L76.6055249,10.3493333 C76.9391829,10.448381 77.0397833,10.6761905 77.0397833,11.0393651 L77.0397833,22.1789206 C77.0397833,22.6692063 76.9727164,22.7699048 76.5082779,22.8326349 L74.845018,23.0274286 L74.845018,24.7789206 L83.6693494,24.7789206" id="Fill-3" fill="#8A8B87"></path>
                <path d="M95.504986,24.7789206 L95.504986,23.0604444 L93.5114215,22.8326349 C93.0151262,22.7666032 92.979916,22.703873 92.979916,22.175619 L92.979916,0.0384761905 L87.894566,0.0384761905 L87.5944415,1.7784127 L89.5913594,2.4024127 C89.9250173,2.50146032 90.0256177,2.72926984 90.0256177,3.09079365 L90.0256177,22.175619 C90.0256177,22.6692063 89.9585508,22.7979683 89.4941123,22.8326349 L87.4301275,23.0274286 L87.4301275,24.7789206 L95.504986,24.7789206" id="Fill-4" fill="#8A8B87"></path>
                <path d="M113.678448,24.7937778 L113.678448,23.0472381 L111.981654,22.8177778 C111.483682,22.751746 111.450149,22.6840635 111.450149,22.1624127 L111.450149,0.0384761905 L106.431866,0.0384761905 L106.131741,1.7784127 L108.126982,2.40571429 C108.427107,2.50146032 108.557887,2.73257143 108.557887,3.06273016 L108.557887,9.20533333 C107.263496,8.29079365 105.467779,7.63542857 103.472537,7.63542857 C99.4837316,7.63542857 96.5394934,10.2866032 96.5394934,16.7478095 C96.5394934,22.7467937 99.0192931,25.1486984 102.808575,25.1486984 C105.400712,25.1486984 107.132715,24.0129524 108.656811,22.5800635 L108.787592,22.6147302 L109.045799,24.7937778 L113.678448,24.7937778 L113.678448,24.7937778 Z M108.494174,19.9668571 C107.030438,21.4046984 105.434245,22.6807619 103.472537,22.6807619 C101.145315,22.6807619 99.5860087,21.208254 99.5860087,16.6619683 C99.5860087,12.7710476 100.813334,10.0901587 103.940329,10.0901587 C105.700836,10.0901587 107.494877,11.0393651 108.494174,11.8565079 L108.494174,19.9668571 L108.494174,19.9668571 Z" id="Fill-5" fill="#8A8B87"></path>
                <path d="M123.507106,31.6825397 L123.507106,29.9640635 L120.383464,29.7032381 C119.885492,29.6685714 119.850282,29.5744762 119.850282,29.0445714 L119.850282,23.3592381 C121.412941,24.7029841 123.009134,25.1586032 124.903775,25.1586032 C130.118229,25.1586032 131.806639,20.6420317 131.806639,15.7292698 C131.806639,9.96965079 129.289952,7.66019048 125.571091,7.66019048 C123.309259,7.66019048 121.448151,8.55987302 119.618901,9.87390476 L119.521654,9.84088889 L119.224883,7.98539683 L114.867209,7.98539683 L114.567084,9.72863492 L116.461725,10.3493333 C116.795383,10.4450794 116.89766,10.6728889 116.89766,11.0311111 L116.89766,29.0792381 C116.89766,29.5744762 116.795383,29.6685714 116.330945,29.7346032 L114.966133,29.9310476 L114.966133,31.6825397 L123.507106,31.6825397 L123.507106,31.6825397 Z M119.850282,12.1586032 C120.814369,11.4074921 122.811287,10.128127 124.938985,10.128127 C126.99794,10.128127 128.7618,11.536254 128.7618,15.991746 C128.7618,20.1170794 127.562979,22.703873 124.405803,22.703873 C122.641943,22.703873 120.982036,21.655619 119.850282,20.576 L119.850282,12.1586032 L119.850282,12.1586032 Z" id="Fill-6" fill="#D9282A"></path>
                <path d="M149.269191,24.7937778 L149.269191,23.0472381 L147.572398,22.8177778 C147.074426,22.751746 147.040892,22.6840635 147.040892,22.1640635 L147.040892,13.4874921 C147.040892,8.94450794 145.464819,7.6271746 140.770134,7.6271746 C138.162907,7.6271746 134.376979,8.08774603 134.376979,12.1371429 L137.23906,12.4359365 C137.272594,9.96469841 138.724593,9.90196825 140.743307,9.90196825 C143.620479,9.90196825 144.086594,11.0855873 144.086594,13.4874921 L144.086594,15.232381 L139.619936,15.592254 C135.632807,15.9174603 133.572176,17.4510476 133.572176,20.7047619 C133.572176,22.3638095 134.103681,25.1404444 138.253448,25.1404444 C140.805344,25.1404444 142.658068,24.0789841 144.250908,22.6262857 L144.348155,22.6543492 L144.644926,24.7937778 L149.269191,24.7937778 L149.269191,24.7937778 Z M144.086594,20.3465397 C143.058793,21.2907937 140.967982,22.8491429 139.018011,22.8491429 C137.458704,22.8491429 136.699171,22.136 136.699171,20.3795556 C136.699171,18.6907937 137.493915,17.8753016 140.339229,17.6177778 L144.086594,17.2892698 L144.086594,20.3465397 L144.086594,20.3465397 Z" id="Fill-7" fill="#D9282A"></path>
                <path d="M160.865063,31.6825397 L160.865063,29.9904762 L157.647527,29.6685714 L165.708972,10.4516825 C165.873286,10.0901587 166.139877,9.96139683 166.540602,9.89536508 L167.667327,9.73688889 L167.667327,8.01511111 L161.098121,8.01511111 L160.734283,9.73688889 L162.989408,9.9944127 L158.378557,21.0332698 L153.965553,9.9944127 L156.153611,9.73688889 L156.153611,8.01511111 L149.287634,8.01511111 L148.891939,9.73688889 L150.250045,10.0604444 C150.649093,10.1561905 150.783227,10.223873 150.945864,10.6184127 L156.918174,24.6138413 L154.991677,28.9785397 C154.793829,29.4407619 154.663049,29.6405079 154.265677,29.6685714 L151.876418,29.9607619 L151.876418,31.6825397 L160.865063,31.6825397" id="Fill-8" fill="#D9282A"></path>
                <path d="M15.7892322,4.56990476 C17.6050693,4.95453968 19.6724074,5.71720635 21.4513578,7.46209524 C22.02478,8.0184127 22.522752,8.78438095 22.7356895,9.37536508 C22.8413199,9.61803175 22.8413199,10.0026667 23.020724,10.2453333 C23.3057584,10.6662857 23.8037304,11.0129524 24.1591851,11.4652698 C24.6236236,11.952254 24.9086581,12.4772063 25.160159,13.0335238 C25.2641128,13.2068571 25.3009996,13.4511746 25.40663,13.6608254 C25.5491472,13.9381587 25.8006482,15.2604444 25.8006482,15.752381 C25.8006482,16.7626667 25.4435168,18.015619 24.9790783,18.9895873 C24.9790783,19.0259048 25.0176418,19.0259048 25.0176418,19.1299048 L25.0176418,19.999873 C24.6236236,25.3649524 18.0309443,29.2311111 13.896268,29.2311111 C13.3982961,29.2311111 11.9748005,29.160127 11.9748005,28.1861587 C11.9748005,28.0788571 12.0468974,27.7668571 12.1173177,27.5241905 C11.3309579,27.6298413 9.79847857,27.9071746 8.90816507,27.9071746 C8.23414242,27.9071746 5.13229687,27.8725079 5.13229687,26.2349206 C5.13229687,24.7029841 7.91054448,24.5989841 8.44707992,24.5989841 C9.9409958,24.5989841 11.510362,25.0149841 13.0428413,25.7132698 C12.7913404,25.7826032 12.3302552,25.9229206 12.2598349,25.9229206 C12.1508512,25.9229206 12.0083339,25.8139683 11.8658167,25.7826032 C10.8698728,25.4326349 9.7280583,25.2262857 8.69522756,25.2262857 C8.09162519,25.2262857 7.98264143,25.1883175 7.27005529,25.3649524 C7.19963501,25.3649524 5.9521901,25.6786032 5.9521901,26.1655873 C5.9521901,26.512254 6.94813402,26.7219048 7.16107152,26.7565714 C7.58862321,26.8259048 8.48061339,26.8968889 8.55271034,26.8968889 C14.897242,26.8968889 24.7326074,21.7414603 24.7326074,15.5740952 C24.7326074,14.4267937 24.1977486,12.7908571 23.1263544,11.7426032 C23.0542574,12.1965714 22.9503037,12.6835556 22.7708996,13.1738413 C22.6652692,13.4874921 22.3802348,14.0438095 22.3802348,14.1131429 C22.3802348,14.1131429 24.1591851,16.0280635 24.1591851,16.4490159 C24.1591851,16.6916825 23.7701969,17.768 23.7701969,17.8059683 C23.4147422,16.8650159 22.9134169,15.9257143 21.9157963,14.9847619 C21.773279,15.1250794 21.6307618,15.3314286 21.4882446,15.5080635 C21.3088406,15.752381 21.095903,15.9950476 20.8829655,16.2393651 C20.418527,16.7626667 19.3504862,17.6656508 19.3504862,17.768 C19.3504862,17.768 20.6314646,19.0259048 21.0623696,20.4868571 C21.1327899,20.6965079 21.2384203,21.1141587 21.2384203,21.1834921 C21.2384203,21.3947937 20.5258341,21.8471111 20.5258341,21.8817778 C20.4889473,20.6965079 19.9909754,19.4435556 18.6714335,18.2582857 C17.1406308,19.3725714 15.5377312,20.2805079 14.0052518,21.0101587 C14.9307754,21.7777778 15.4656342,22.8920635 15.4656342,23.6910476 C15.4656342,24.0756825 15.2526967,24.9109841 15.0732927,25.0149841 C14.8586785,25.1553016 14.6122075,25.2262857 14.3607065,25.295619 C14.645741,24.9456508 14.897242,24.1450159 14.897242,23.7983492 C14.897242,23.1710476 14.4696903,22.1937778 13.7537508,21.6704762 C13.5777001,21.5664762 13.3278758,21.3238095 13.2557789,21.3238095 C13.1518251,21.3238095 12.2598349,21.7067937 11.761863,21.8817778 C11.1884407,22.0914286 10.5848383,22.2647619 9.97955929,22.4364444 C8.16204547,22.9613968 6.45016206,23.2733968 4.70474519,23.2733968 C4.02736919,23.2733968 1.06804087,23.2040635 1.06804087,21.6374603 C1.06804087,19.3032381 6.55914582,19.0919365 7.30358875,19.0919365 C8.94505188,19.0919365 10.5144181,19.2702222 12.1894147,19.999873 C11.8658167,20.1022222 11.258861,20.3465397 11.1884407,20.3465397 C11.0828103,20.3465397 9.23008634,19.8248889 7.55508974,19.8248889 C6.80729347,19.8248889 5.88176982,19.895873 5.16918368,20.0328889 C4.59576143,20.1401905 4.02736919,20.2805079 3.52772055,20.4868571 C3.34999319,20.5231746 2.03045133,21.0794921 2.03045133,21.5664762 C2.03045133,21.6374603 2.24338883,21.7777778 2.38590606,21.8471111 C3.10184554,22.1937778 3.74233473,22.1624127 4.4532442,22.1624127 C11.1884407,22.1624127 21.5217781,16.9690159 22.1287338,11.5692698 L22.1287338,10.6993016 C21.8068125,7.18146032 16.2486406,4.91657143 13.5408133,4.91657143 C13.470393,4.91657143 13.0093079,4.95453968 12.7209201,5.02057143 C12.9003241,5.08990476 13.1132616,5.08990476 13.2943423,5.16088889 C13.4351829,5.19720635 13.6129103,5.26819048 13.7923143,5.33422222 C14.0773488,5.44152381 14.573644,5.68419048 14.897242,5.95987302 C15.143713,6.1711746 15.2862302,6.4831746 15.5377312,6.65650794 C15.7171352,6.83479365 16.0725899,6.7968254 16.3576244,6.90412698 C17.283148,7.18146032 18.4249625,7.59746032 19.387373,8.0184127 C19.7763612,8.2247619 20.2760098,8.43606349 20.7069149,8.67873016 C20.8494321,8.78438095 20.9533858,8.99238095 21.0623696,9.16406349 C21.2384203,9.44469841 21.4513578,9.89866667 21.5217781,10.2833016 C19.6724074,8.92139683 17.8180068,8.2247619 15.9636062,7.63542857 L15.8596524,7.63542857 C15.9300727,8.57473016 15.5377312,9.51568254 14.8586785,10.4566349 C16.8924832,10.9799365 19.0285649,11.7426032 21.1327899,13.1738413 C21.0254828,13.4181587 20.8829655,13.6938413 20.7069149,13.9381587 C19.8149247,13.3108571 18.8525142,12.823873 17.960524,12.4062222 C17.7475865,12.303873 14.7547248,11.2226032 14.2902863,11.2226032 C14.1813025,11.2226032 13.470393,11.9192381 13.0797282,12.2328889 C12.1173177,12.9972063 11.1549072,13.5898413 10.1924968,14.1478095 C12.7913404,14.4977778 15.3952139,15.0540952 17.9940575,16.7246984 C17.8180068,16.8980317 17.4256653,17.248 17.3200349,17.248 C17.2496146,17.248 16.5705619,16.7626667 16.1782204,16.5860317 C14.3607065,15.7144127 10.9034063,14.8807619 8.80253465,14.8807619 C8.62313061,14.8807619 6.55914582,15.752381 6.05782051,15.887746 C4.59576143,16.3086984 2.99286178,16.8286984 1.4989459,16.8286984 C0.997620594,16.8286984 0,16.7956825 0,15.9950476 C0,14.4267937 5.66715564,14.0438095 6.05782051,14.0438095 L7.30358875,14.0438095 C6.41327525,14.3904762 5.34523438,14.7734603 4.49180768,14.9847619 C3.67023778,15.1944127 2.81681109,15.3314286 2.03045133,15.5740952 C1.8879341,15.6120635 1.74709354,15.7144127 1.60457632,15.7853968 C1.60457632,15.7853968 1.57104285,15.8217143 1.67499659,15.8217143 C1.74709354,15.8217143 2.9224415,15.6450794 3.56293069,15.5080635 C6.80729347,14.7404444 10.2981272,13.4874921 13.5072798,10.5969524 C14.2902863,9.86234921 14.8586785,8.95771429 15.0397592,8.15873016 L15.0397592,7.46209524 C14.9307754,6.69447619 13.7923143,5.89384127 13.0797282,5.68419048 C12.6152897,5.54387302 11.7249762,5.37053968 11.6193457,5.37053968 C11.4399417,5.37053968 11.1884407,5.47453968 11.01239,5.75352381 C12.1508512,5.99619048 13.470393,5.75352381 14.4696903,7.14844444 C14.4696903,7.14844444 14.5032238,7.18146032 14.4696903,7.25079365 C14.1813025,7.14844444 10.6904688,6.34285714 10.1203998,6.34285714 C9.90746234,6.34285714 8.23414242,7.49511111 7.8401242,7.73777778 C6.77208333,8.36507937 5.66715564,8.95771429 4.59576143,9.47771429 L8.26767588,9.51568254 C9.87057552,9.61803175 11.6914427,9.82933333 13.3278758,10.1429841 C13.2557789,10.176 12.6152897,10.839619 12.4727724,10.839619 C12.4023522,10.839619 11.258861,10.6299683 10.6904688,10.5589841 C9.65596135,10.4186667 8.58959715,10.3856508 7.51820293,10.3163175 L2.88890804,10.4186667 C2.63740705,10.3856508 2.13943509,10.3526349 2.13943509,9.93168254 C2.13943509,9.61803175 2.52842329,9.41168254 2.81681109,9.30438095 C3.03142527,9.23504762 3.27789624,9.09803175 3.49251042,9.02869841 C5.77278606,8.08774603 8.12515865,6.83479365 10.4439978,5.40355556 C10.3719008,5.37053968 10.2260303,5.37053968 10.15561,5.37053968 C10.0499796,5.37053968 9.76494511,5.40355556 9.5520076,5.47453968 C9.58554107,5.51085714 9.62242788,5.51085714 9.65596135,5.51085714 C9.33739343,5.68419048 8.80253465,6.03085714 8.69522756,6.03085714 C8.44707992,6.03085714 8.09162519,5.71720635 8.09162519,5.51085714 C8.09162519,4.88355556 9.5520076,4.8472381 9.65596135,4.8472381 C11.1180204,4.81422222 11.2253275,4.88355556 11.3309579,4.88355556 C11.4013782,4.88355556 12.0083339,4.56990476 12.4023522,4.50057143 C12.9707444,4.36025397 13.2557789,4.36025397 13.7923143,4.36025397 C14.3975933,4.36025397 15.1101795,4.4295873 15.7892322,4.56990476 L15.7892322,4.56990476 Z M13.6129103,28.4304762 C13.5072798,28.4304762 12.6152897,28.4304762 12.6152897,28.1168254 C12.6152897,27.9418413 12.9003241,27.3822222 13.1518251,27.3178413 C13.6833305,27.1065397 14.825145,26.8259048 14.897242,26.8259048 C15.0011957,26.8259048 15.9300727,26.9332063 16.0357031,26.9332063 C16.1061234,26.9332063 16.7851761,26.8968889 17.1775176,26.7928889 C17.6386028,26.6855873 18.212025,26.4792381 18.7435305,26.1655873 C19.2800659,25.8519365 20.0613956,25.1883175 20.418527,24.632 C20.6314646,24.3183492 20.7404483,23.9006984 20.9902726,23.6217143 C21.3088406,23.2040635 21.9157963,22.8540952 22.4137682,22.4034286 C22.9134169,21.9131429 23.4147422,21.3947937 23.8741507,20.8368254 C22.9134169,25.2262857 17.0685339,28.4304762 13.6129103,28.4304762 L13.6129103,28.4304762 Z M16.1430102,26.3405714 C17.1775176,25.8849524 18.3159788,25.3269841 19.4209065,24.6683175 C18.3528656,25.8519365 17.2110511,26.1655873 16.1430102,26.3405714 L16.1430102,26.3405714 Z" id="Fill-10" fill="#D9282A"></path>
            </g>
        </g>
    </g>
</svg>