<?xml version="1.0" encoding="UTF-8"?>
<svg width="62px" height="62px" viewBox="0 0 62 62" version="1.1" xmlns="http://www.w3.org/2000/svg" xmlns:xlink="http://www.w3.org/1999/xlink">
    <!-- Generator: Sketch 48.2 (47327) - http://www.bohemiancoding.com/sketch -->
    <title>add-users</title>
    <desc>Created with Sketch.</desc>
    <defs>
        <polygon id="path-1" points="0 62 62 62 62 0 0 0"></polygon>
    </defs>
    <g id="add-users" stroke="none" stroke-width="1" fill="none" fill-rule="evenodd">
        <g id="Page-1">
            <polygon id="Fill-1" fill="#08C4FF" points="14 26 48 26 48 18 14 18"></polygon>
            <polygon id="Fill-2" fill="#08C4FF" points="18 40 32 40 32 30 18 30"></polygon>
            <path d="M15,43 L47,43 L47,19 L15,19 L15,43 Z M13,45 L49,45 L49,17 L13,17 L13,45 Z" id="Fill-3" fill="#0C101A"></path>
            <g id="Group-53">
                <path d="M53,2 C49.141,2 46,5.141 46,9 C46,12.859 49.141,16 53,16 C56.859,16 60,12.859 60,9 C60,5.141 56.859,2 53,2 M53,18 C48.037,18 44,13.963 44,9 C44,4.037 48.037,0 53,0 C57.963,0 62,4.037 62,9 C62,13.963 57.963,18 53,18" id="Fill-4" fill="#0C101A"></path>
                <path d="M53,5 C51.897,5 51,5.897 51,7 C51,8.103 51.897,9 53,9 C54.103,9 55,8.103 55,7 C55,5.897 54.103,5 53,5 M53,11 C50.794,11 49,9.206 49,7 C49,4.794 50.794,3 53,3 C55.206,3 57,4.794 57,7 C57,9.206 55.206,11 53,11" id="Fill-6" fill="#0C101A"></path>
                <path d="M58,16 L56,16 L56,14 C56,12.346 54.654,11 53,11 C51.346,11 50,12.346 50,14 L50,16 L48,16 L48,14 C48,11.243 50.243,9 53,9 C55.757,9 58,11.243 58,14 L58,16 Z" id="Fill-8" fill="#0C101A"></path>
                <path d="M50.2988,28 L49.9998,28 L49.9998,26 L50.2988,26 C52.3458,26 54.2528,25.083 55.5308,23.484 C56.4788,22.302 56.9998,20.815 56.9998,19.299 L56.9998,19 L58.9998,19 L58.9998,19.299 C58.9998,21.268 58.3228,23.198 57.0928,24.734 C55.4328,26.81 52.9558,28 50.2988,28" id="Fill-10" fill="#0C101A"></path>
                <polygon id="Fill-12" fill="#0C101A" points="51.0713 32.3711 48.9233 27.0001 51.0713 21.6291 52.9283 22.3711 51.0773 27.0001 52.9283 31.6291"></polygon>
                <path d="M28,12 L26,12 L26,11.701 C26,9.654 25.083,7.747 23.484,6.469 C22.302,5.521 20.815,5 19.299,5 L19,5 L19,3 L19.299,3 C21.268,3 23.198,3.677 24.734,4.907 C26.81,6.567 28,9.044 28,11.701 L28,12 Z" id="Fill-14" fill="#0C101A"></path>
                <polygon id="Fill-16" fill="#0C101A" points="27 13.0771 21.629 10.9291 22.371 9.0711 27 10.9231 31.629 9.0711 32.371 10.9291"></polygon>
                <path d="M5,43 L3,43 L3,42.701 C3,40.732 3.677,38.802 4.907,37.266 C6.567,35.19 9.044,34 11.701,34 L12,34 L12,36 L11.701,36 C9.654,36 7.747,36.917 6.469,38.516 C5.521,39.698 5,41.185 5,42.701 L5,43 Z" id="Fill-18" fill="#0C101A"></path>
                <polygon id="Fill-20" fill="#0C101A" points="10.9287 40.3711 9.0717 39.6291 10.9227 35.0001 9.0717 30.3711 10.9287 29.6291 13.0767 35.0001"></polygon>
                <path d="M43,59 L42.701,59 C40.732,59 38.802,58.323 37.266,57.093 C35.19,55.433 34,52.956 34,50.299 L34,50 L36,50 L36,50.299 C36,52.346 36.917,54.253 38.516,55.531 C39.698,56.479 41.185,57 42.701,57 L43,57 L43,59 Z" id="Fill-22" fill="#0C101A"></path>
                <polygon id="Fill-24" fill="#0C101A" points="39.6289 52.9287 34.9999 51.0767 30.3709 52.9287 29.6289 51.0717 34.9999 48.9227 40.3709 51.0717"></polygon>
                <path d="M9,2 C5.141,2 2,5.141 2,9 C2,12.859 5.141,16 9,16 C12.859,16 16,12.859 16,9 C16,5.141 12.859,2 9,2 M9,18 C4.037,18 0,13.963 0,9 C0,4.037 4.037,0 9,0 C13.963,0 18,4.037 18,9 C18,13.963 13.963,18 9,18" id="Fill-26" fill="#0C101A"></path>
                <path d="M9,5 C7.897,5 7,5.897 7,7 C7,8.103 7.897,9 9,9 C10.103,9 11,8.103 11,7 C11,5.897 10.103,5 9,5 M9,11 C6.794,11 5,9.206 5,7 C5,4.794 6.794,3 9,3 C11.206,3 13,4.794 13,7 C13,9.206 11.206,11 9,11" id="Fill-28" fill="#0C101A"></path>
                <path d="M14,16 L12,16 L12,14 C12,12.346 10.654,11 9,11 C7.346,11 6,12.346 6,14 L6,16 L4,16 L4,14 C4,11.243 6.243,9 9,9 C11.757,9 14,11.243 14,14 L14,16 Z" id="Fill-30" fill="#0C101A"></path>
                <path d="M53,46 C49.141,46 46,49.141 46,53 C46,56.859 49.141,60 53,60 C56.859,60 60,56.859 60,53 C60,49.141 56.859,46 53,46 M53,62 C48.037,62 44,57.963 44,53 C44,48.037 48.037,44 53,44 C57.963,44 62,48.037 62,53 C62,57.963 57.963,62 53,62" id="Fill-32" fill="#0C101A"></path>
                <path d="M53,49 C51.897,49 51,49.897 51,51 C51,52.103 51.897,53 53,53 C54.103,53 55,52.103 55,51 C55,49.897 54.103,49 53,49 M53,55 C50.794,55 49,53.206 49,51 C49,48.794 50.794,47 53,47 C55.206,47 57,48.794 57,51 C57,53.206 55.206,55 53,55" id="Fill-34" fill="#0C101A"></path>
                <path d="M58,60 L56,60 L56,58 C56,56.346 54.654,55 53,55 C51.346,55 50,56.346 50,58 L50,60 L48,60 L48,58 C48,55.243 50.243,53 53,53 C55.757,53 58,55.243 58,58 L58,60 Z" id="Fill-36" fill="#0C101A"></path>
                <path d="M9,46 C5.141,46 2,49.141 2,53 C2,56.859 5.141,60 9,60 C12.859,60 16,56.859 16,53 C16,49.141 12.859,46 9,46 M9,62 C4.037,62 0,57.963 0,53 C0,48.037 4.037,44 9,44 C13.963,44 18,48.037 18,53 C18,57.963 13.963,62 9,62" id="Fill-38" fill="#0C101A"></path>
                <path d="M9,49 C7.897,49 7,49.897 7,51 C7,52.103 7.897,53 9,53 C10.103,53 11,52.103 11,51 C11,49.897 10.103,49 9,49 M9,55 C6.794,55 5,53.206 5,51 C5,48.794 6.794,47 9,47 C11.206,47 13,48.794 13,51 C13,53.206 11.206,55 9,55" id="Fill-40" fill="#0C101A"></path>
                <path d="M14,60 L12,60 L12,58 C12,56.346 10.654,55 9,55 C7.346,55 6,56.346 6,58 L6,60 L4,60 L4,58 C4,55.243 6.243,53 9,53 C11.757,53 14,55.243 14,58 L14,60 Z" id="Fill-42" fill="#0C101A"></path>
                <mask id="mask-2" fill="white">
                    <use xlink:href="#path-1"></use>
                </mask>
                <g id="Clip-45"></g>
                <polygon id="Fill-44" fill="#0C101A" mask="url(#mask-2)" points="17 23 19 23 19 21 17 21"></polygon>
                <polygon id="Fill-46" fill="#0C101A" mask="url(#mask-2)" points="21 23 23 23 23 21 21 21"></polygon>
                <polygon id="Fill-47" fill="#0C101A" mask="url(#mask-2)" points="25 23 27 23 27 21 25 21"></polygon>
                <polygon id="Fill-48" fill="#0C101A" mask="url(#mask-2)" points="14 27 48 27 48 25 14 25"></polygon>
                <path d="M19,39 L31,39 L31,31 L19,31 L19,39 Z M17,41 L33,41 L33,29 L17,29 L17,41 Z" id="Fill-49" fill="#0C101A" mask="url(#mask-2)"></path>
                <polygon id="Fill-50" fill="#0C101A" mask="url(#mask-2)" points="35 31 45 31 45 29 35 29"></polygon>
                <polygon id="Fill-51" fill="#0C101A" mask="url(#mask-2)" points="35 35 45 35 45 33 35 33"></polygon>
                <polygon id="Fill-52" fill="#0C101A" mask="url(#mask-2)" points="35 39 45 39 45 37 35 37"></polygon>
            </g>
        </g>
    </g>
</svg>