<?xml version="1.0" encoding="UTF-8"?>
<svg width="18px" height="16px" viewBox="0 0 18 16" version="1.1" xmlns="http://www.w3.org/2000/svg" xmlns:xlink="http://www.w3.org/1999/xlink">
    <!-- Generator: Sketch 48.2 (47327) - http://www.bohemiancoding.com/sketch -->
    <title>my-account</title>
    <desc>Created with Sketch.</desc>
    <defs></defs>
    <g id="Desktop-HD" stroke="none" stroke-width="1" fill="none" fill-rule="evenodd" transform="translate(-336.000000, -102.000000)" stroke-linecap="round" stroke-linejoin="round">
        <g id="Header" transform="translate(135.000000, 89.000000)" stroke="#3D4565" stroke-width="2.5">
            <g id="login" transform="translate(154.000000, 8.000000)">
                <g id="Page-1" transform="translate(47.000000, 5.000000)">
                    <g id="Group-5">
                        <path d="M12.7692308,6.07608696 C12.7692308,8.32712728 10.9610307,10.1521739 8.73076923,10.1521739 C6.50050774,10.1521739 4.69230769,8.32712728 4.69230769,6.07608696 C4.69230769,3.82459822 6.50050774,2 8.73076923,2 C10.9610307,2 12.7692308,3.82459822 12.7692308,6.07608696 Z" id="Stroke-1"></path>
                        <path d="M16,14.5 C14.6019121,11.9018271 11.9916145,10.1521739 8.99977766,10.1521739 C6.00794079,10.1521739 3.39808786,11.9018271 2,14.5" id="Stroke-3"></path>
                    </g>
                </g>
            </g>
        </g>
    </g>
</svg>